<?xml version="1.0" encoding="UTF-8"?>
<svg width="16px" height="8px" viewBox="0 0 16 8" version="1.1" xmlns="http://www.w3.org/2000/svg" xmlns:xlink="http://www.w3.org/1999/xlink">
    <!-- Generator: Sketch 57.1 (83088) - https://sketch.com -->
    <title></title>
    <desc>Created with Sketch.</desc>
    <g id="Партнёры" stroke="none" stroke-width="1" fill="none" fill-rule="evenodd">
        <g id="Партнёрам-XL" transform="translate(-1342.000000, -58.000000)" fill="#9BCCDE" fill-rule="nonzero">
            <g id="Шапка" transform="translate(50.000000, 20.000000)">
                <g id="Group-6" transform="translate(1160.000000, 21.000000)">
                    <g id="Group-27" transform="translate(33.000000, 10.000000)">
                        <path d="M99.5,7.48618785 C99.5,7.42725569 99.5123395,7.36586895 99.5370188,7.30202578 C99.5616981,7.23818262 99.5987164,7.18170681 99.648075,7.13259669 C99.7467922,7.04419845 99.865251,7 100.003455,7 C100.141659,7 100.260118,7.04419845 100.358835,7.13259669 L107.051826,13.7918969 L113.641165,7.23572744 C113.739882,7.13750718 113.858341,7.08839779 113.996545,7.08839779 C114.134749,7.08839779 114.253208,7.13750718 114.351925,7.23572744 C114.450642,7.3339477 114.5,7.45181024 114.5,7.5893186 C114.5,7.72682696 114.450642,7.8446895 114.351925,7.94290976 L107.407206,14.8526703 C107.308489,14.9508906 107.19003,15 107.051826,15 C106.913622,15 106.795163,14.9508906 106.696446,14.8526703 L99.648075,7.85451197 C99.5987164,7.80540184 99.5616981,7.74892604 99.5370188,7.68508287 C99.5123395,7.62123971 99.5,7.55494203 99.5,7.48618785 Z" id=""></path>
                    </g>
                </g>
            </g>
        </g>
    </g>
</svg>