<?xml version="1.0" encoding="UTF-8"?>
<svg width="20px" height="20px" viewBox="0 0 20 20" version="1.1" xmlns="http://www.w3.org/2000/svg" xmlns:xlink="http://www.w3.org/1999/xlink">
    <!-- Generator: Sketch 57.1 (83088) - https://sketch.com -->
    <title>Menu - simple-line-icons</title>
    <desc>Created with Sketch.</desc>
    <g id="Партнёры" stroke="none" stroke-width="1" fill="none" fill-rule="evenodd">
        <g id="Меню-XS" transform="translate(-340.000000, -25.000000)" fill="#9BCCDE">
            <path d="M341.194292,25 C341.345949,25 341.491285,25.0321127 341.630304,25.0963391 C341.769323,25.1605655 341.895701,25.2504811 342.009444,25.3660886 L350.018,33.506 L358.009513,25.3853565 C358.123256,25.2697489 358.249634,25.1798333 358.388653,25.1156069 C358.527672,25.0513805 358.673008,25.0192678 358.824665,25.0192678 C358.976322,25.0192678 359.121657,25.0513805 359.260676,25.1156069 C359.399695,25.1798333 359.526074,25.2697489 359.639851,25.3853224 C359.753559,25.500964 359.842025,25.6294148 359.905215,25.7707129 C359.968405,25.912011 360,26.0597295 360,26.2138728 C360,26.3680162 359.968405,26.5157347 359.905215,26.6570328 C359.842025,26.7983308 359.753559,26.9267817 359.639817,27.0423892 L351.649,35.163 L359.317204,42.9576108 C359.430947,43.0732183 359.519412,43.2016692 359.582602,43.3429672 C359.645793,43.4842653 359.677387,43.6319838 359.677387,43.7861272 C359.677387,43.9402705 359.645793,44.087989 359.582602,44.2292871 C359.519412,44.3705852 359.430947,44.499036 359.317246,44.6146854 C359.190823,44.7430963 359.061285,44.8362232 358.928585,44.894027 C358.795885,44.9518307 358.64739,44.9871547 358.483095,45 C358.331438,45 358.186102,44.9678873 358.047084,44.9036609 C357.908065,44.8394345 357.781686,44.7495189 357.667943,44.6339114 L350,36.84 L342.332057,44.6339114 C342.218314,44.7495189 342.091935,44.8394345 341.952916,44.9036609 C341.813898,44.9678873 341.668562,45 341.516905,45 C341.365248,45 341.219912,44.9678873 341.080893,44.9036609 C340.941875,44.8394345 340.815496,44.7495189 340.701719,44.6339454 C340.58801,44.5183039 340.499545,44.389853 340.436355,44.2485549 C340.373164,44.1072568 340.34157,43.9595383 340.34157,43.805395 C340.34157,43.6512516 340.373164,43.5035331 340.436355,43.3622351 C340.499545,43.220937 340.58801,43.0924861 340.701753,42.9768786 L348.369,35.183 L340.360183,27.0423892 C340.246441,26.9267817 340.157975,26.7983308 340.094785,26.6570328 C340.031595,26.5157347 340,26.3680162 340,26.2138728 C340.012638,26.0468842 340.047392,25.8959544 340.104264,25.761079 C340.161135,25.6262036 340.25276,25.4945414 340.379106,25.3660546 C340.492883,25.2504811 340.619262,25.1605655 340.758281,25.0963391 C340.8973,25.0321127 341.042635,25 341.194292,25 Z" id="Menu---simple-line-icons"></path>
        </g>
    </g>
</svg>