<?xml version="1.0" encoding="UTF-8"?>
<svg width="63px" height="61px" viewBox="0 0 63 61" version="1.1" xmlns="http://www.w3.org/2000/svg" xmlns:xlink="http://www.w3.org/1999/xlink">
    <!-- Generator: Sketch 57.1 (83088) - https://sketch.com -->
    <title>Group 8</title>
    <desc>Created with Sketch.</desc>
    <defs>
        <filter x="-31.4%" y="-32.7%" width="162.7%" height="165.3%" filterUnits="objectBoundingBox" id="filter-1">
            <feOffset dx="2" dy="2" in="SourceAlpha" result="shadowOffsetOuter1"></feOffset>
            <feGaussianBlur stdDeviation="3" in="shadowOffsetOuter1" result="shadowBlurOuter1"></feGaussianBlur>
            <feColorMatrix values="0 0 0 0 0   0 0 0 0 0   0 0 0 0 0  0 0 0 0.5 0" type="matrix" in="shadowBlurOuter1" result="shadowMatrixOuter1"></feColorMatrix>
            <feMerge>
                <feMergeNode in="shadowMatrixOuter1"></feMergeNode>
                <feMergeNode in="SourceGraphic"></feMergeNode>
            </feMerge>
        </filter>
    </defs>
    <g id="Сайт" stroke="none" stroke-width="1" fill="none" fill-rule="evenodd">
        <g id="5XS-выбор-квартиры" transform="translate(-14.000000, -522.000000)" fill="#FFFFFF">
            <g id="Group-8" filter="url(#filter-1)" transform="translate(18.000000, 526.000000)">
                <path d="M34.9175915,24.5116486 L35.782387,24.431243 C35.6621185,31.0949125 30.3509512,36.5095416 23.6706765,36.77889 L23.7646399,35.5011042 L23.4619615,39.6291441 L23.1975336,36.7875937 L23.1975336,36.7875937 C16.4158633,36.7689581 10.8612549,31.4111556 10.6193325,24.6550524 L8,24.4631566 L10.6106014,24.220282 C10.5971425,17.3616809 16.0959173,11.7555636 22.9746825,11.6148397 L23.1659353,9 L23.4486569,12.0342751 L23.4095748,11.6144253 C30.1912981,11.7459681 35.6561931,17.1970017 35.78405,23.9575132 L38.6291441,24.1647441 L34.9175915,24.5116486 Z M11.989285,24.0917988 L13.8124236,23.9222839 C13.9559321,19.0346664 17.8391607,15.0754496 22.7376952,14.8223599 L22.6620256,15.8585144 C18.401298,16.1432367 15.0356993,19.5742933 14.8456048,23.8269577 L14.1338115,23.8932716 L22.1281807,23.1472403 L22.871988,12.996241 C16.8463844,13.1867293 12.0446845,18.0823457 11.989285,24.0917988 L11.989285,24.0917988 Z M22.1460587,25.500969 L14.870135,24.9675567 C15.2515214,29.1111068 18.6320557,32.3441117 22.8008918,32.5522082 L22.8840452,33.4524193 L22.1460587,25.500969 Z M22.8985971,33.5854616 C18.0937578,33.4192416 14.1863103,29.6711128 13.834875,24.8912957 L12.5389291,24.7959695 L12.0025896,24.7565956 C12.2942317,30.661596 17.1384705,35.3244341 23.0686458,35.4082647 L22.8985971,33.5854616 Z M23.7717079,35.394173 C29.5978244,35.079376 34.2138978,30.3735604 34.3991299,24.5601407 L32.5697548,24.7304845 C32.3047878,29.4203276 28.6038975,33.193346 23.9064165,33.5626662 L23.9825018,32.5236104 C28.0421084,32.1293372 31.2288298,28.8812606 31.5340791,24.8266396 L24.4988845,25.4806604 L23.7717079,35.394173 Z M24.4785119,23.1298329 L31.539484,23.6466668 C31.2644474,19.4941063 27.9669847,16.1757233 23.8041378,15.8622446 L24.4785119,23.1298329 Z M23.5351365,12.9978989 L23.7051852,14.8252611 C28.5061771,15.0991269 32.3289394,18.9349038 32.5722494,23.7225133 L32.4554189,23.7138096 L32.4554189,23.7138096 L32.5722494,23.7225133 L34.3987142,23.8563845 C34.218809,17.9470356 29.4642182,13.1937643 23.5367995,12.9974844 L23.5351365,12.9978989 Z" id="Shape"></path>
                <path d="M23.3222958,3.33884298 C23.7446673,3.33884298 24.0897706,3.27823752 24.3576159,3.15702479 C24.6254612,3.03581207 24.7593819,2.77686149 24.7593819,2.38016529 C24.7593819,2.14875917 24.707874,1.9696976 24.6048565,1.84297521 C24.5018391,1.71625281 24.3627676,1.61983504 24.187638,1.55371901 C24.0125083,1.48760298 23.8064765,1.44903587 23.5695364,1.43801653 C23.3325963,1.42699719 23.0802074,1.4214876 22.812362,1.4214876 L21.8543046,1.4214876 L21.8543046,3.33884298 L23.3222958,3.33884298 Z M21.8543046,6.5785124 L22.98234,6.5785124 C23.2707888,6.5785124 23.5437809,6.57300281 23.8013245,6.56198347 C24.0588681,6.55096413 24.2829277,6.51515182 24.4735099,6.45454545 C24.6640922,6.39393909 24.8160406,6.29752132 24.9293598,6.16528926 C25.042679,6.03305719 25.0993377,5.84022165 25.0993377,5.58677686 C25.0993377,5.3443514 25.042679,5.15427066 24.9293598,5.01652893 C24.8160406,4.87878719 24.6640922,4.77685983 24.4735099,4.7107438 C24.2829277,4.64462777 24.0588681,4.60330587 23.8013245,4.58677686 C23.5437809,4.57024785 23.2707888,4.56198347 22.98234,4.56198347 L21.8543046,4.56198347 L21.8543046,6.5785124 Z M20,8 L20,0 L23.7395143,0 C24.6872748,0 25.4058107,0.192835537 25.8951435,0.578512397 C26.3844763,0.964189256 26.6291391,1.4876 26.6291391,2.14876033 C26.6291391,2.44628248 26.5853573,2.69421388 26.4977925,2.89256198 C26.4102277,3.09091008 26.289184,3.25619769 26.1346578,3.38842975 C25.9801317,3.52066182 25.8024293,3.62809876 25.6015453,3.7107438 C25.4006612,3.79338884 25.1869033,3.86776826 24.9602649,3.9338843 C25.238412,3.95592298 25.5011025,4.00550926 25.7483444,4.08264463 C25.9955862,4.15978 26.2119196,4.27548132 26.397351,4.42975207 C26.5827824,4.58402281 26.72958,4.77961314 26.8377483,5.01652893 C26.9459167,5.25344471 27,5.53718843 27,5.8677686 C27,6.50689025 26.7321587,7.02203661 26.196468,7.41322314 C25.6607773,7.80440967 24.9036105,8 23.9249448,8 L20,8 Z" id="в" fill-rule="nonzero"></path>
                <path d="M21.3042453,43.3783784 L20.0825472,42.5598456 C20.1375789,42.467181 20.233883,42.3333342 20.3714623,42.1583012 C20.5090416,41.9832681 20.7044013,41.8108117 20.9575472,41.6409266 C21.2106931,41.4710416 21.5353754,41.321751 21.9316038,41.1930502 C22.3278322,41.0643494 22.806601,41 23.3679245,41 C23.9072354,41 24.3832527,41.0540535 24.7959906,41.1621622 C25.2087285,41.2702708 25.5526716,41.4221354 25.8278302,41.6177606 C26.1029888,41.8133858 26.3093547,42.0398958 26.446934,42.2972973 C26.5845133,42.5546988 26.6533019,42.8326883 26.6533019,43.1312741 C26.6533019,43.3886757 26.6037736,43.6203336 26.504717,43.8262548 C26.4056599,44.0321761 26.2790888,44.2072065 26.125,44.3513514 C25.9709112,44.4954962 25.7893092,44.6164731 25.5801887,44.7142857 C25.3710681,44.8120983 25.1619507,44.8815957 24.9528302,44.9227799 L24.9528302,44.969112 C25.1839634,44.9897041 25.4205963,45.0360357 25.6627358,45.1081081 C25.9048754,45.1801805 26.124999,45.2882876 26.3231132,45.4324324 C26.5212274,45.5765773 26.6835685,45.7593297 26.8101415,45.980695 C26.9367145,46.2020603 27,46.462032 27,46.7606178 C27,47.141572 26.909199,47.4710411 26.7275943,47.7490347 C26.5459897,48.0270284 26.2928475,48.2586863 25.9681604,48.4440154 C25.6434732,48.6293446 25.2555054,48.7683393 24.8042453,48.8610039 C24.3529852,48.9536684 23.8632102,49 23.3349057,49 C22.7845884,49 22.3140743,48.9433725 21.9233491,48.8301158 C21.5326238,48.7168592 21.20519,48.5855863 20.9410377,48.4362934 C20.6768855,48.2870005 20.4705196,48.1454318 20.321934,48.011583 C20.1733483,47.8777342 20.0660381,47.785071 20,47.7335907 L21.0566038,46.6679537 C21.1116355,46.7091379 21.1969334,46.7786353 21.3125,46.8764479 C21.4280666,46.9742605 21.5794016,47.0772195 21.7665094,47.1853282 C21.9536173,47.2934368 22.1737409,47.388674 22.4268868,47.4710425 C22.6800327,47.553411 22.9661934,47.5945946 23.2853774,47.5945946 C23.8356946,47.5945946 24.2676871,47.5045054 24.5813679,47.3243243 C24.8950487,47.1441432 25.0518868,46.8893195 25.0518868,46.5598456 C25.0518868,46.2406676 24.881291,45.9987138 24.5400943,45.8339768 C24.1988977,45.6692398 23.7476443,45.5868726 23.1863208,45.5868726 L21.9976415,45.5868726 L21.9976415,44.3667954 L23.1037736,44.3667954 C23.5880527,44.3667954 23.9925298,44.299872 24.317217,44.1660232 C24.6419041,44.0321744 24.8042453,43.7953685 24.8042453,43.4555985 C24.8042453,43.1673087 24.6694196,42.909911 24.3997642,42.6833977 C24.1301087,42.4568843 23.7146226,42.3436293 23.1533019,42.3436293 C22.8010989,42.3436293 22.5066836,42.3976829 22.2700472,42.5057915 C22.0334108,42.6139002 21.8435542,42.7348771 21.7004717,42.8687259 C21.5353765,43.0231668 21.4033024,43.1930493 21.3042453,43.3783784 Z" id="з" fill-rule="nonzero"></path>
                <path d="M5.77852349,22.34375 C5.62192315,22.1041655 5.39746604,21.9140632 5.10514541,21.7734375 C4.81282479,21.6328118 4.50484875,21.5625 4.18120805,21.5625 C3.83668732,21.5625 3.52610131,21.6249994 3.24944072,21.75 C2.97278012,21.8750006 2.73788314,22.0468739 2.54474273,22.265625 C2.35160232,22.4843761 2.20022426,22.742186 2.09060403,23.0390625 C1.98098379,23.335939 1.9261745,23.6562483 1.9261745,24 C1.9261745,24.333335 1.97837383,24.648436 2.08277405,24.9453125 C2.18717427,25.242189 2.33855233,25.5 2.53691275,25.71875 C2.73527318,25.9375011 2.97539009,26.1093744 3.25727069,26.234375 C3.5391513,26.3593756 3.85234727,26.421875 4.19686801,26.421875 C4.55182877,26.421875 4.87285464,26.3541673 5.15995526,26.21875 C5.44705587,26.0833327 5.67934289,25.9010428 5.85682327,25.671875 L7,26.875 C6.67635931,27.2187517 6.27181451,27.4921865 5.78635347,27.6953125 C5.30089243,27.8984385 4.75540944,28 4.14988814,28 C3.54436685,28 2.98844399,27.9036468 2.48210291,27.7109375 C1.97576182,27.5182282 1.53728746,27.2473976 1.16666667,26.8984375 C0.796045872,26.5494774 0.508949564,26.1302108 0.305369128,25.640625 C0.101788691,25.1510392 0,24.6041697 0,24 C0,23.406247 0.104398658,22.8645858 0.313199105,22.375 C0.521999553,21.8854142 0.809095861,21.4635434 1.17449664,21.109375 C1.53989743,20.7552066 1.97837179,20.4817718 2.48993289,20.2890625 C3.00149398,20.0963532 3.55480687,20 4.14988814,20 C4.68232928,20 5.20693254,20.0989573 5.72371365,20.296875 C6.24049475,20.4947927 6.65548098,20.7760398 6.96868009,21.140625 L5.77852349,22.34375 Z" id="с" fill-rule="nonzero"></path>
                <path d="M51,23.984375 C51,24.578128 50.8958921,25.1223934 50.6876731,25.6171875 C50.4794542,26.1119816 50.1950618,26.5364566 49.8344875,26.890625 C49.4739132,27.2447934 49.0473247,27.5182282 48.5547091,27.7109375 C48.0620936,27.9036468 47.5364756,28 46.9778393,28 C46.4598312,28 45.9697622,27.9166675 45.5076177,27.75 C45.0454732,27.5833325 44.6391984,27.3463557 44.2887812,27.0390625 C43.9383639,26.7317693 43.6488931,26.3645855 43.4203601,25.9375 C43.1918271,25.5104145 43.0470914,25.0364609 42.9861496,24.515625 L41.8282548,24.515625 L41.8282548,27.78125 L40,27.78125 L40,20.21875 L41.8282548,20.21875 L41.8282548,23.03125 L43.0623269,23.03125 C43.1638971,22.5729144 43.3314854,22.158856 43.565097,21.7890625 C43.7987085,21.419269 44.0881793,21.1015638 44.433518,20.8359375 C44.7788568,20.5703112 45.167357,20.3645841 45.5990305,20.21875 C46.0307039,20.0729159 46.4903023,20 46.9778393,20 C47.5364756,20 48.0620936,20.0963532 48.5547091,20.2890625 C49.0473247,20.4817718 49.4739132,20.7526024 49.8344875,21.1015625 C50.1950618,21.4505226 50.4794542,21.8697892 50.6876731,22.359375 C50.8958921,22.8489608 51,23.390622 51,23.984375 Z M49.2022161,23.984375 C49.2022161,23.6614567 49.1514317,23.351564 49.0498615,23.0546875 C48.9482913,22.757811 48.8010167,22.497397 48.6080332,22.2734375 C48.4150498,22.049478 48.1814418,21.8723965 47.9072022,21.7421875 C47.6329626,21.6119785 47.3231781,21.546875 46.9778393,21.546875 C46.6325006,21.546875 46.3227161,21.6119785 46.0484765,21.7421875 C45.7742369,21.8723965 45.5431681,22.049478 45.3552632,22.2734375 C45.1673582,22.497397 45.0226229,22.757811 44.9210526,23.0546875 C44.8194824,23.351564 44.7686981,23.6614567 44.7686981,23.984375 C44.7686981,24.3072933 44.8194824,24.617186 44.9210526,24.9140625 C45.0226229,25.210939 45.1673582,25.471353 45.3552632,25.6953125 C45.5431681,25.919272 45.7742369,26.0963535 46.0484765,26.2265625 C46.3227161,26.3567715 46.6325006,26.421875 46.9778393,26.421875 C47.3231781,26.421875 47.6355018,26.3567715 47.9148199,26.2265625 C48.1941381,26.0963535 48.4277461,25.919272 48.615651,25.6953125 C48.8035559,25.471353 48.9482913,25.210939 49.0498615,24.9140625 C49.1514317,24.617186 49.2022161,24.3072933 49.2022161,23.984375 Z" id="ю" fill-rule="nonzero"></path>
            </g>
        </g>
    </g>
</svg>