<svg width="23" height="24" viewBox="0 0 23 24" fill="none" xmlns="http://www.w3.org/2000/svg">
<path fill-rule="evenodd" clip-rule="evenodd" d="M22.2394 14.0575H21.8841V10.8224C21.8841 10.3103 21.632 9.85682 21.2468 9.58129V9.14081C21.2468 8.50185 20.7326 7.98205 20.1005 7.98205H19.8352L20.8503 6.47643C21.1905 5.97177 21.0611 5.28135 20.5619 4.93738L13.6741 0.192691C13.4323 0.0260506 13.1408 -0.0354495 12.8531 0.0197225C12.5655 0.0748006 12.3164 0.239754 12.1516 0.484254L6.20655 9.30252H4.55221L4.95134 5.2183C4.95583 5.17227 4.98542 5.13238 5.02669 5.11668C5.54092 4.92069 5.98656 4.55469 6.28149 4.08613C6.30472 4.04924 6.34854 4.02815 6.39389 4.03279L8.98867 4.29191C9.17472 4.31015 9.34022 4.17318 9.35858 3.98521C9.37695 3.79724 9.24112 3.62985 9.05517 3.61129L6.46039 3.35216C6.1592 3.32235 5.87197 3.46265 5.7106 3.71896C5.49376 4.06349 5.16609 4.33255 4.78801 4.47665C4.50342 4.58512 4.30801 4.84349 4.27796 5.15104L3.87229 9.30248H3.44089L4.07211 2.84291C4.09484 2.61041 4.30013 2.4396 4.53041 2.4629L9.77394 2.98649C9.9599 3.00463 10.1255 2.86775 10.1439 2.67979C10.1622 2.49182 10.0264 2.32443 9.84044 2.30586L4.59691 1.78227C3.99574 1.72232 3.45814 2.16786 3.39874 2.77565L2.88994 7.98205H2.02347C1.39141 7.98205 0.877137 8.50185 0.877137 9.14081V9.44127C0.360037 9.68193 0 10.2103 0 10.8224V22.48C0 23.3182 0.674535 24 1.50372 24H20.3805C21.2096 24 21.8841 23.3182 21.8841 22.48V19.245H22.2394C22.6588 19.245 23 18.9001 23 18.4762V14.8263C23 14.4024 22.6588 14.0575 22.2394 14.0575ZM20.1005 8.66605C20.3595 8.66601 20.5702 8.87901 20.5702 9.14085V9.31509C20.508 9.30712 20.4448 9.30257 20.3805 9.30257H18.945L19.3741 8.66605H20.1005ZM12.979 0.691676C12.869 0.71277 12.7737 0.775863 12.7107 0.869379L7.02535 9.30248H7.54491L11.7972 2.99497C11.9668 2.74349 12.2678 2.60802 12.5646 2.65011C12.9648 2.70674 13.38 2.62926 13.7336 2.43191C13.9967 2.28505 14.3154 2.30085 14.5655 2.47311L18.1361 4.93274C18.3862 5.10496 18.5173 5.39905 18.4784 5.70032C18.4259 6.10527 18.5065 6.52419 18.705 6.87998C18.8544 7.14777 18.8402 7.47271 18.6681 7.72804L17.6067 9.30243H18.1262L20.2912 6.09121C20.4213 5.89818 20.3718 5.63408 20.1808 5.50251L13.2931 0.757817C13.2227 0.709348 13.1412 0.684129 13.0579 0.684129C13.0317 0.684129 13.0053 0.68666 12.979 0.691676ZM12.8597 6.67677C11.3864 6.67677 10.177 7.83801 10.0784 9.30248H8.36362L12.3562 3.38015H12.3563C12.379 3.34644 12.4166 3.32638 12.4552 3.32638C12.4604 3.32638 12.4655 3.32676 12.4706 3.32746C13.015 3.40443 13.5796 3.29915 14.0605 3.03069C14.0984 3.00951 14.147 3.01255 14.1844 3.03833L17.7551 5.49801C17.7925 5.52379 17.813 5.56841 17.8074 5.61172C17.7362 6.16246 17.8457 6.73218 18.1157 7.21602C18.1374 7.25488 18.1347 7.30466 18.109 7.34287L16.788 9.30243H15.641C15.5424 7.83801 14.3331 6.67677 12.8597 6.67677ZM10.7568 9.30252H14.9626C14.8657 8.21554 13.9598 7.36073 12.8597 7.36077C11.7596 7.36077 10.8537 8.21554 10.7568 9.30252ZM1.55376 9.14081C1.55376 8.87896 1.76443 8.66596 2.02347 8.66596H2.82311L2.76093 9.30248H1.55376V9.14081ZM1.50372 9.98643C1.04765 9.98643 0.676622 10.3615 0.676622 10.8224V11.7714H21.2075V10.8224C21.2075 10.3615 20.8365 9.98643 20.3805 9.98643H1.50372ZM21.2075 22.48C21.2075 22.941 20.8365 23.316 20.3805 23.316H1.50372C1.04765 23.316 0.676622 22.941 0.676622 22.48V21.5311H2.50101C2.68789 21.5311 2.8393 21.378 2.8393 21.1891C2.8393 21.0003 2.68785 20.8472 2.50101 20.8472H0.676622V12.4553H21.2075V14.0575H17.9908H17.9908C16.9773 14.0575 16.0993 14.6547 15.6827 15.5191L15.6783 15.5278C15.6761 15.5324 15.6741 15.5371 15.672 15.5418C15.6708 15.5446 15.6696 15.5474 15.6683 15.5502C15.6186 15.6567 15.5755 15.767 15.5404 15.8808L15.5401 15.8818C15.4652 16.125 15.4249 16.3834 15.4249 16.6513C15.4249 18.0815 16.5759 19.245 17.9907 19.245H17.9908H21.2075V20.8472H4.66726C4.48038 20.8472 4.32897 21.0003 4.32897 21.1891C4.32897 21.378 4.48042 21.5311 4.66726 21.5311H21.2075V22.48ZM22.2394 18.561C22.2858 18.561 22.3234 18.523 22.3234 18.4762V14.8263C22.3234 14.7795 22.2857 14.7415 22.2394 14.7415H17.9909C17.2747 14.7415 16.6502 15.1464 16.3299 15.7417C16.3153 15.7687 16.3014 15.7962 16.2881 15.824C16.2616 15.8797 16.2376 15.9368 16.2164 15.9953C16.1421 16.1999 16.1016 16.4209 16.1016 16.6513C16.1016 16.8816 16.1421 17.1026 16.2164 17.3072C16.2376 17.3657 16.2616 17.4229 16.2881 17.4785C16.3014 17.5063 16.3153 17.5338 16.3299 17.5608C16.6502 18.1561 17.2747 18.561 17.9909 18.561H22.2394Z" fill="#72B9C6"/>
<path fill-rule="evenodd" clip-rule="evenodd" d="M16.6973 16.6512C16.6973 15.8861 17.313 15.2637 18.0699 15.2637C18.8268 15.2637 19.4425 15.8861 19.4425 16.6512C19.4425 17.4162 18.8268 18.0386 18.0699 18.0386C17.313 18.0386 16.6973 17.4162 16.6973 16.6512ZM17.3739 16.6512C17.3739 17.0391 17.6861 17.3547 18.0699 17.3547C18.4537 17.3547 18.7659 17.0391 18.7659 16.6512C18.7659 16.2632 18.4537 15.9476 18.0699 15.9476C17.6861 15.9476 17.3739 16.2633 17.3739 16.6512Z" fill="#72B9C6"/>
</svg>
