<svg xmlns="http://www.w3.org/2000/svg" viewBox="0 0 1440 800">
    <defs>
        <style>.a{fill:none;stroke:#fff;stroke-miterlimit:10;}</style>
    </defs>
    <title>waves-line</title>
    <path class="a"
          d="M0,131.58s26.89,49.82,151.16,34.06,216.89-137.95,401-93.82S785.49,189.28,917.54,159.4s183.82-66.71,315.87-31.32,175,28.86,206.59,5"/>
    <path class="a"
          d="M0,148.27s29.48,59.24,153.75,43.49,234-141.4,418.14-97.27,230.43,116.27,362.47,86.4,165.71-75.65,297.75-40.26,150.47,56.08,207.89,60.18"/>
    <path class="a"
          d="M0,189.5s58,58.77,130.45,38.44S296.78,115.49,366.06,94.49c69.74-21.15,124.28-22.92,317.16,68.86s250.63,34.68,309.4,8.57,135.26-50.28,255.65,9S1440,178.07,1440,178.07"/>
    <path class="a"
          d="M0,200.81s44.3,42.95,93.54,43c97.09.05,250-128.3,326.22-135.31C571.89,94.49,738.22,227.94,878,227.94c144.13,0,233-114,392.25-59.22C1397.48,212.5,1422,216.1,1440,212.08"/>
    <path class="a"
          d="M0,342.72s98.71,89.9,245,30.55,253.73-127.85,411.66-48.65,308.53,283.49,523,240.9C1384.2,524.9,1440,393.46,1440,393.46"/>
    <path class="a"
          d="M0,355.92s82.09,58.22,149.28,64.31c115.14,10.44,199.28-108.12,264-147.7s130.75-64,270.56,35.92S953.13,519.11,1089,519.11c130.75,0,260.48-105.23,351-231.9"/>
    <path class="a"
          d="M0,366.69s70.76,88.93,162.15,86.92C285.8,450.89,406.42,261.53,506.5,258.75,702,253.32,746,552.1,1103.28,552.1c183.83,0,308.1-173.5,336.72-211.65"/>
    <path class="a"
          d="M0,319s43.25,73.63,158.26,86.44c106.16,11.82,53.08-74,75.09-92.1S311,298,384.81,258.68s150.9-67.21,273.15,0C911.69,398.16,1218.77,558.2,1440,378.6"/>
    <path class="a"
          d="M0,299.72c9.68,42.91,185.76,114,188,60,2.59-61.39,35.48-57.43,102.43-94.1C514.26,143,625.59,215.38,744.69,258.68s350.82,181.35,479,137.22S1440,268,1440,268"/>
    <path class="a"
          d="M0,232.21c0,40.35,76.08,120,157.64,84s203.24-147.51,342-147.51c133.06,0,253.45,114.58,390.67,169.56s227.84,84.32,353.41,19.82S1393.17,251.61,1440,252.77"/>
    <path class="a"
          d="M0,218.07S36.85,294,102,288.82c69.73-5.5,79-40,173.47-91.15s165.7-93,286.1-45.52S865.75,305.78,970.61,272.53s221.93-72.63,185.12-28.74c-62.14,74.09-38.83,98.47,29.78,65.65s133.9-94.26,254.49-71.35"/>
    <path class="a"
          d="M0,452s69.85,46.16,151.16,35.08C250.84,473.52,365.7,364.26,451.5,378.6,548.59,394.82,546,499.22,656,458.48s64.72,29.75,246,101,275.74,77.41,405.19,11.78C1406,521.2,1440,510.86,1440,510.86"/>
    <path class="a"
          d="M0,494.87s77.38,52.85,160.23,24.24S379,323.75,451.5,323.75c82.85,0,108.74,93.7,150.17,71.07s79.51-28.15,124.27,30,184.85,195.86,340.47,211.61c123,12.45,202.72-59.37,256.32-100.71C1379.43,492,1440,478.94,1440,478.94"/>
    <path class="a"
          d="M0,525.57s44.93,29.58,117.51,21.5C210.71,536.7,280.77,444.15,380.3,420.9c183-42.75,362.47,85.44,415.55,119.38s260.2,186.71,444,88.27S1440,541.25,1440,541.25"/>
    <path class="a"
          d="M0,571.3s84.17,93.83,239.19,25.56c119-52.4,138.83-152.25,231.73-166.8,142.4-22.31,377.7,177.57,433.67,213.2,119.1,75.81,226.55,62.23,346.94,0S1440,617,1440,617"/>
    <path class="a"
          d="M0,605.92s33.36,50.92,139.51-15.85S340,450.6,465.74,458.48c172.14,10.79,306.55,236.32,583.58,229.69,119.17-2.85,246.39-111.2,390.68-99.23"/>
    <path class="a"
          d="M0,621.76s-.3,30,83.85,16.14S261.38,539.53,332.4,519.11c76.38-22,141.11-30,304.22,61.22s293.86,147.8,403.9,136.48,304.22-126.74,399.48-39.6"/>
    <path class="a"
          d="M0,643.26s36,39.38,102,36.21S248.26,637.9,336.28,561.74C388.57,516.5,455,462.37,533.06,491c76.37,28.07,287.13,183.75,331.4,204.11,65.12,30,143.69,70.32,290,5.82C1322,627.07,1440,677.21,1440,677.21"/>
    <path class="a"
          d="M0,653.44c10.84,19.7,54.2,45.07,109.74,47.53,121.69,5.38,229.4-136.65,287.39-164.27C507,484.37,584.84,661.14,720,706.35c129,43.13,299.8-22.88,443.5,11.89S1440,702.1,1440,702.1"/>
    <path class="a"
          d="M0,673.81s72.2,56.59,165.4,32.54c81-20.9,192.8-125.08,246-144.61,68.16-25,136.91,3.27,256.32,80.63s264.53,114.56,339.17,111.78c121.69-4.52,205.09-47.8,271.85-59,73.74-12.36,161.29-6.84,161.29-6.84"/>
    <path class="a"
          d="M0,706.35S80,775.8,175.76,754.3s175-143.42,268-145.07c93.21-1.66,157.63,69,204.54,97.12,123,73.79,279.62,98.72,444,55.72,131.81-34.47,269.49-63.89,347.7-43.83"/>
    <path class="a"
          d="M0,718.24s42.77,37.2,76.08,41.57C153.75,770,221.07,720,292.27,667S419.14,544.81,491.63,571.3c55.23,20.17,115.87,115,185.12,164.12,74.32,52.74,212.31,86.63,396.13,41.36C1231,737.84,1395.45,757.58,1440,800"/>
    <path class="a"
          d="M0,754.3s68.31,45.37,158.93,28.84S483.86,624.7,480,661.14s-11.65,54,50.49,57.1S659.92,800,759.6,800"/>
    <path class="a" d="M0,774.52s103.27,40.74,222.36,13.58S415.25,695,445,718.24s81.55,79.2,165.7,81.76"/>
    <path class="a" d="M1111.72,800s202-64.58,328.28-40.19"/>
    <path class="a" d="M237.9,800s208.42-71.87,256.32-58.29S631.44,796.06,678,800"/>

</svg>