<svg width="47" height="40" viewBox="0 0 47 40" fill="none" xmlns="http://www.w3.org/2000/svg">
<path d="M7.62179 7.35652H10.6567C11.037 7.35652 11.3452 7.0457 11.3452 6.66236C11.3452 6.27897 11.037 5.96816 10.6567 5.96816H7.62179C6.49711 5.96816 5.54709 5.07026 5.50395 3.9667C5.50257 3.93201 5.50195 3.89757 5.50195 3.86324C5.50195 2.49857 6.60302 1.38833 7.95647 1.38833C8.70151 1.38833 9.39799 1.72443 9.86704 2.31039C10.0657 2.55855 10.4063 2.63825 10.6933 2.50364C10.9579 2.37952 11.2405 2.31661 11.5333 2.31661C12.2402 2.31661 12.9009 2.70014 13.2576 3.31761C13.3498 3.47736 13.5016 3.59341 13.6791 3.63997C13.8566 3.68653 14.0452 3.65979 14.203 3.56566C14.4296 3.43051 14.689 3.35907 14.9533 3.35907C15.6694 3.35907 16.2806 3.87406 16.4067 4.58352C16.4657 4.91441 16.7511 5.15523 17.0845 5.15523H19.3124C19.5466 5.15523 19.7478 5.33777 19.7516 5.55377C19.7536 5.66403 19.7127 5.76796 19.6362 5.84646C19.5599 5.92493 19.4577 5.96816 19.3486 5.96816H13.4104C13.0301 5.96816 12.7219 6.27897 12.7219 6.66236C12.7219 7.0457 13.0301 7.35652 13.4104 7.35652H19.3486C19.8302 7.35652 20.2813 7.16566 20.6187 6.81914C20.9562 6.47262 21.1371 6.01424 21.1284 5.52841C21.1109 4.55704 20.2962 3.76687 19.3124 3.76687H17.5989C17.171 2.69848 16.136 1.97071 14.9533 1.97071C14.6573 1.97071 14.3642 2.01716 14.0848 2.10723C13.4503 1.36843 12.5184 0.928251 11.5333 0.928251C11.2121 0.928251 10.898 0.973145 10.5947 1.06199C9.88642 0.381864 8.94919 0 7.95647 0C5.84378 0 4.125 1.73304 4.125 3.86324C4.125 3.91551 4.12609 3.96818 4.1281 4.02122C4.20107 5.89154 5.73575 7.35652 7.62179 7.35652V7.35652Z" fill="#72B9C6"/>
<path fill-rule="evenodd" clip-rule="evenodd" d="M46.3114 38.612H45.8633C46.5752 37.764 46.9115 36.4469 46.9115 34.5423C46.9115 32.1638 46.3999 29.179 45.5769 26.752C44.8606 24.6408 43.6226 22.1237 41.7925 22.1237C40.8725 22.1237 40.0189 22.7543 39.2483 23.9998C38.5805 22.9236 37.737 22.1237 36.7052 22.1237C35.5962 22.1237 34.5862 23.0364 33.7001 24.8376C33.519 24.7721 33.3252 24.7349 33.1226 24.7349H26.261C25.8807 24.7349 25.5724 25.0456 25.5724 25.4291C25.5724 25.8125 25.8807 26.1233 26.261 26.1233H33.1226C33.3121 26.1233 33.4662 26.2788 33.4662 26.4698V27.2548C33.4662 27.4458 33.3121 27.6014 33.1226 27.6014H13.8772C13.6877 27.6014 13.5335 27.4458 13.5335 27.2548V26.4698C13.5335 26.2788 13.6877 26.1233 13.8772 26.1233H23.5071C23.8874 26.1233 24.1956 25.8125 24.1956 25.4291C24.1956 25.0456 23.8874 24.7349 23.5071 24.7349H17.7982C18.325 23.549 18.602 22.2514 18.602 20.9435C18.602 15.8351 14.4802 11.6791 9.41371 11.6791C4.34731 11.6791 0.225344 15.8351 0.225344 20.9435C0.225344 25.7857 3.92897 29.7715 8.62987 30.1738V34.1277C8.48483 34.1082 8.33778 34.0977 8.18942 34.0977C7.92808 34.0977 7.67115 34.1284 7.42103 34.1888C6.61952 33.0967 5.30942 32.4535 3.94245 32.5179C1.85107 32.6156 0.144752 34.3444 0.0581851 36.4545C0.0268883 37.2185 0.211026 37.9681 0.570885 38.6228C0.246731 38.6793 0 38.9632 0 39.3062C0 39.6893 0.308159 40 0.688457 40H2.02595H46.3114C46.6918 40 47 39.6893 47 39.3062C47 38.9227 46.6918 38.612 46.3114 38.612ZM13.9096 37.5994C13.8958 37.3968 13.8592 37.1964 13.8038 37.0015H16.0023V38.612H13.8059C13.8972 38.2882 13.9332 37.9467 13.9096 37.5994ZM28.8529 32.8793V31.8566H18.45V32.8793H28.8529ZM31.7702 31.8566C31.7261 32.2032 31.6897 32.5451 31.6616 32.8793H30.2298V31.8566H31.7702ZM34.8103 34.4272C34.8103 34.3393 34.7392 34.2677 34.6518 34.2677H12.348C12.2606 34.2677 12.1896 34.3393 12.1896 34.4272V35.4532C12.1896 35.5411 12.2607 35.6131 12.348 35.6131H34.6518C34.7392 35.6131 34.8103 35.5414 34.8103 35.4532V34.4272ZM17.3793 37.0015H29.9234V38.612H17.3793V37.0015ZM31.8515 37.0015H31.3006V38.612H32.6377C32.304 38.2162 32.0329 37.6917 31.8515 37.0015ZM40.0287 25.4385C40.6251 24.2324 41.2846 23.5121 41.7929 23.5121C42.3601 23.5121 43.3504 24.4784 44.274 27.2016C45.0398 29.4586 45.5346 32.3403 45.5346 34.5423C45.5346 38.4561 44.1261 38.4561 41.7925 38.4561C41.5057 38.4561 41.2041 38.4553 40.9064 38.4438C41.5283 37.5936 41.8242 36.3261 41.8242 34.5423C41.8242 32.1638 41.3126 29.179 40.4896 26.752C40.3486 26.3367 40.1868 25.9055 40.005 25.4808C40.0134 25.467 40.0214 25.4533 40.0287 25.4385ZM39.1867 27.2016C38.2628 24.4784 37.2725 23.5121 36.7052 23.5121C36.1441 23.5121 35.4245 24.359 34.7808 25.7782C34.7669 25.8089 34.7505 25.8371 34.733 25.8646C34.803 26.0534 34.8434 26.2571 34.8434 26.4702V27.2552C34.8434 27.6459 34.713 28.0058 34.4958 28.2959C34.713 28.5864 34.8434 28.946 34.8434 29.3367V30.1217C34.8434 31.0662 34.0907 31.8353 33.1591 31.8548C33.1124 32.2028 33.0742 32.5451 33.0439 32.8797H34.6518C35.4981 32.8797 36.1871 33.5739 36.1871 34.4276V35.4535C36.1871 36.3069 35.4985 37.0015 34.6518 37.0015H33.2917C33.797 38.3855 34.854 38.4561 36.7052 38.4561C39.0388 38.4561 40.447 38.4561 40.447 34.5423C40.447 32.3403 39.9522 29.459 39.1867 27.2016ZM33.1226 28.9898C33.3121 28.9898 33.4662 29.1453 33.4662 29.3367V30.1217C33.4662 30.3127 33.3121 30.4682 33.1226 30.4682H13.8772C13.6877 30.4682 13.5335 30.3127 13.5335 30.1217V29.3367C13.5335 29.1453 13.6877 28.9898 13.8772 28.9898H33.1226ZM9.41382 13.0674C5.10663 13.0674 1.60237 16.6006 1.60237 20.9435C1.60237 25.0196 4.68942 28.3824 8.62998 28.78V25.6877L6.33194 23.3707C6.06306 23.0998 6.06306 22.6602 6.33194 22.3889C6.60079 22.1176 7.03665 22.118 7.3056 22.3889L8.63005 23.7241V19.5506C8.63005 19.1672 8.93821 18.8564 9.31855 18.8564C9.69885 18.8564 10.007 19.1672 10.007 19.5506V21.3624L11.412 19.9458C11.6808 19.6747 12.1167 19.6747 12.3856 19.9458C12.6545 20.2168 12.6545 20.6564 12.3856 20.9275L10.007 23.3258V28.7951C10.8201 28.734 11.6117 28.5484 12.3664 28.2377C12.3918 28.2272 12.4175 28.2189 12.4433 28.2116C12.2626 27.9371 12.1566 27.6082 12.1566 27.2548V26.4698C12.1566 25.5133 12.9285 24.7349 13.8774 24.7349H16.2663C16.2745 24.7157 16.2833 24.6965 16.2934 24.6773C16.9029 23.5382 17.2252 22.2471 17.2252 20.9435C17.2252 16.6006 13.721 13.0674 9.41382 13.0674ZM10.0069 30.1886C10.7406 30.1416 11.4596 30.0074 12.1565 29.7874V30.1217C12.1565 31.0782 12.9284 31.8566 13.8772 31.8566H17.0731V32.8793H12.3479C11.5013 32.8793 10.8125 33.5739 10.8125 34.4272V34.8744C10.6657 34.8841 10.5201 34.9037 10.3766 34.9355C10.2597 34.831 10.136 34.7355 10.0068 34.649V30.1886H10.0069ZM1.43393 36.5116C1.401 37.3155 1.70759 38.069 2.28139 38.612H12.3154C12.4808 38.3396 12.5582 38.0223 12.5359 37.6946C12.5194 37.4507 12.4424 37.2105 12.3138 36.9996C11.7737 36.9877 11.3026 36.6932 11.0383 36.257C10.8302 36.2523 10.6273 36.2884 10.4337 36.3662C10.1589 36.4773 9.84455 36.3984 9.65312 36.1709C9.28725 35.7357 8.75382 35.4861 8.18964 35.4861C7.9189 35.4861 7.65665 35.5425 7.40991 35.6532C7.07979 35.8015 6.69253 35.6673 6.52231 35.3461C6.02535 34.4081 5.06396 33.856 4.00636 33.9049C2.62132 33.9693 1.49139 35.1146 1.43393 36.5116Z" fill="#72B9C6"/>
<path d="M25.6128 16.0504H32.4988C32.8792 16.0504 33.1874 15.7395 33.1874 15.3562C33.1874 14.9728 32.8792 14.662 32.4988 14.662H25.6128C25.1574 14.662 24.7845 14.3006 24.7814 13.8563C24.7814 13.8542 24.7813 13.846 24.7813 13.844C24.7813 12.8882 25.553 12.0945 26.5018 12.0748C26.833 12.0679 27.1128 11.8237 27.1667 11.4937C27.4472 9.77887 28.9039 8.53416 30.6305 8.53416C32.3655 8.53416 33.8232 9.78582 34.0968 11.5103C34.1558 11.8806 34.4961 12.1365 34.8641 12.0892C34.9534 12.0777 35.0251 12.0722 35.0904 12.0722C35.7116 12.0722 36.2927 12.4089 36.6075 12.9507C36.731 13.1634 36.9569 13.2941 37.2014 13.2941H39.0894C39.4632 13.2941 39.7674 13.6009 39.7674 13.978C39.7674 14.3552 39.4632 14.662 39.0894 14.662H35.2525C34.8725 14.662 34.5643 14.9728 34.5643 15.3562C34.5643 15.7395 34.8725 16.0504 35.2525 16.0504H39.0894C40.2225 16.0504 41.1446 15.1207 41.1446 13.978C41.1446 12.8354 40.2225 11.9057 39.0894 11.9057H37.5646C37.0232 11.2052 36.206 10.7602 35.3243 10.6929C34.7275 8.60506 32.8402 7.14569 30.6305 7.14569C28.4047 7.14569 26.5014 8.63191 25.9214 10.7482C24.4916 11.0408 23.4043 12.3281 23.4043 13.8439L23.4044 13.8657C23.4127 15.0703 24.4035 16.0504 25.6128 16.0504V16.0504Z" fill="#72B9C6"/>
</svg>
