<svg width="9" height="16" viewBox="0 0 9 16" fill="none" xmlns="http://www.w3.org/2000/svg">
<path fill-rule="evenodd" clip-rule="evenodd" d="M8.44262 0C8.51913 0 8.59016 0.0130334 8.65574 0.0391007C8.72131 0.0651679 8.78142 0.104268 8.83607 0.156403C8.94536 0.260672 9 0.388399 9 0.539589C9 0.69078 8.94536 0.818507 8.83607 0.922776L1.36066 8.05474L8.73771 15.0929C8.847 15.1971 8.90164 15.3223 8.90164 15.4682C8.90164 15.6142 8.847 15.7393 8.73771 15.8436C8.62842 15.9479 8.49454 16 8.33607 16C8.17759 16 8.04372 15.9479 7.93443 15.8436L0.163934 8.43011C0.0546443 8.32584 0 8.20072 0 8.05474C0 7.90876 0.0546443 7.78364 0.163934 7.67937L8.04918 0.156403C8.10383 0.104268 8.16667 0.0651679 8.23771 0.0391007C8.30874 0.0130334 8.37705 0 8.44262 0Z" fill="#ACACAC"/>
</svg>
