<svg width="18" height="18" viewBox="0 0 18 18" fill="none" xmlns="http://www.w3.org/2000/svg">
<path id="&#239;&#130;&#149;" d="M17 13.6364C17 14.0455 16.8182 14.8409 16.6477 15.2159C16.4091 15.7727 15.7727 16.1364 15.2614 16.4205C14.5909 16.7841 13.9091 17 13.1477 17C12.0909 17 11.1364 16.5682 10.1705 16.2159C9.47727 15.9659 8.80682 15.6591 8.18182 15.2727C6.25 14.0795 3.92045 11.75 2.72727 9.81818C2.41818 9.31818 2.16 8.78909 1.94109 8.24255L1.45937 6.96023C1.21159 6.2817 1 5.59205 1 4.85227C1 4.09091 1.21591 3.40909 1.57955 2.73864L1.76045 2.421C2.01682 1.98864 2.33864 1.54318 2.78409 1.35227C3.15909 1.18182 3.95455 1 4.36364 1C4.44318 1 4.52273 1 4.60227 1.03409C4.84091 1.11364 5.09091 1.67045 5.20455 1.89773L5.92677 3.19823C6.04798 3.41414 6.17045 3.62879 6.29545 3.84091C6.47727 4.13636 6.81818 4.5 6.81818 4.85227C6.81818 5.54545 4.76136 6.55682 4.76136 7.17045C4.76136 7.47727 5.04545 7.875 5.20455 8.14773C6.35227 10.2159 7.78409 11.6477 9.85227 12.7955L10.2004 13.0056C10.4105 13.1277 10.6378 13.2386 10.8295 13.2386C11.4432 13.2386 12.4545 11.1818 13.1477 11.1818C13.5 11.1818 13.8636 11.5227 14.1591 11.7045C14.7955 12.0795 15.4545 12.4318 16.1023 12.7955L16.4095 12.9491C16.6477 13.0745 16.9129 13.2386 16.9659 13.3977C17 13.4773 17 13.5568 17 13.6364Z" stroke="#00B7C5"/>
</svg>
