<svg width="24" height="24" viewBox="0 0 24 24" fill="none" xmlns="http://www.w3.org/2000/svg">
<path fill-rule="evenodd" clip-rule="evenodd" d="M4.8261 21.75H14.746V21.7507C14.8754 21.7448 14.9977 21.8104 15.0641 21.9216C15.1306 22.0328 15.1306 22.1715 15.0641 22.2827C14.9977 22.3938 14.8754 22.4595 14.746 22.4535H4.8261V23.175C4.8261 23.6302 4.45636 24 4.00112 24H0.824974C0.369738 24 0 23.6302 0 23.175V19.9988C0 19.5435 0.369738 19.1737 0.825724 19.1737H1.5457V4.82625H0.820474C0.367489 4.82625 0 4.45875 0 4.0065V0.8205C0 0.3675 0.367489 0 0.819724 0H4.00637C4.45861 0 4.8261 0.3675 4.8261 0.8205V1.54575H7.59501C7.72068 1.54575 7.8368 1.61279 7.89963 1.72162C7.96246 1.83046 7.96246 1.96454 7.89963 2.07337C7.8368 2.18221 7.72068 2.24925 7.59501 2.24925H4.82535V4.0065C4.82535 4.45875 4.45786 4.82625 4.00487 4.82625H2.24993V19.173H4.00112C4.45636 19.173 4.8261 19.5427 4.8261 19.998V21.75ZM0.703478 4.0065V0.8205C0.703478 0.756 0.755976 0.7035 0.820474 0.7035H4.00637C4.07087 0.7035 4.12337 0.756 4.12337 0.8205V4.0065C4.12337 4.071 4.07087 4.1235 4.00637 4.1235H0.820474C0.789315 4.1237 0.759364 4.11146 0.73726 4.0895C0.715157 4.06753 0.702727 4.03766 0.702728 4.0065H0.703478ZM4.12337 23.175C4.12337 23.2425 4.06862 23.2972 4.00112 23.2972H0.824974C0.757753 23.2968 0.703477 23.2422 0.703478 23.175V19.9987C0.703478 19.9312 0.757476 19.8765 0.824974 19.8765H4.00112C4.06862 19.8765 4.12337 19.9312 4.12337 19.9987V23.175Z" fill="#72B9C6"/>
<path fill-rule="evenodd" clip-rule="evenodd" d="M23.9994 4.0065C23.9994 4.45875 23.6311 4.82625 23.1789 4.82625H22.4522V19.1737H23.1781C23.6304 19.1737 23.9986 19.5413 23.9986 19.9935V23.1795C23.9986 23.6325 23.6311 24 23.1796 24H19.9937C19.5415 24 19.1733 23.6318 19.1733 23.1795V22.4535H16.4036C16.2742 22.4595 16.152 22.3938 16.0855 22.2827C16.019 22.1715 16.019 22.0328 16.0855 21.9216C16.152 21.8104 16.2742 21.7448 16.4036 21.7507H19.1733V19.9935C19.1733 19.5413 19.5415 19.1737 19.9937 19.1737H21.7509V4.82625H19.9937C19.5415 4.82625 19.1733 4.45875 19.1733 4.0065V2.24925H9.25408C9.12842 2.24925 9.0123 2.18221 8.94947 2.07337C8.88664 1.96454 8.88664 1.83046 8.94947 1.72162C9.0123 1.61279 9.12842 1.54575 9.25408 1.54575H19.1725V0.8205C19.1725 0.3675 19.5408 0 19.993 0H23.1789C23.6311 0 23.9986 0.3675 23.9994 0.8205V4.0065ZM19.876 4.0065V0.8205C19.876 0.756 19.9285 0.70275 19.993 0.70275H23.1789C23.2434 0.70275 23.2959 0.75525 23.2959 0.8205V4.0065C23.2959 4.071 23.2434 4.1235 23.1789 4.1235H19.993C19.9284 4.1235 19.876 4.07112 19.876 4.0065ZM23.2959 19.9935V23.1795C23.2959 23.244 23.2434 23.2972 23.1789 23.2972H19.993C19.9618 23.2972 19.932 23.2848 19.91 23.2627C19.888 23.2406 19.8758 23.2107 19.876 23.1795V19.9935C19.876 19.929 19.9285 19.8765 19.993 19.8765H23.1789C23.2434 19.8765 23.2959 19.929 23.2959 19.9935Z" fill="#72B9C6"/>
</svg>
