<svg width="16" height="16" viewBox="0 0 16 16" fill="none" xmlns="http://www.w3.org/2000/svg">
<path fill-rule="evenodd" clip-rule="evenodd" d="M0 8C0 3.58888 3.58888 0 8 0C12.4111 0 16 3.58888 16 8C16 12.4111 12.4111 16 8 16C3.58888 16 0 12.4111 0 8ZM1 8C1 11.8599 4.14013 15 8 15C11.8599 15 15 11.8599 15 8C15 4.14013 11.8599 1 8 1C4.14013 1 1 4.14013 1 8Z" fill="#00B7C5"/>
<path d="M8.5 3H7.5V8.20702L10.6465 11.3535L11.3535 10.6465L8.5 7.79295V3Z" fill="#00B7C5"/>
</svg>
