{
    "/js/index.js": "/js/index.js",
    "/css/main.css": "/css/main.css",
    "/css/admin/material-dashboard.css": "/css/admin/material-dashboard.css",
    "/css/admin/admin-main.css": "/css/admin/admin-main.css",
    "/css/admin/styles.css": "/css/admin/styles.css"
}
