<?xml version="1.0" encoding="UTF-8"?>
<svg width="24px" height="24px" viewBox="0 0 24 24" version="1.1" xmlns="http://www.w3.org/2000/svg" xmlns:xlink="http://www.w3.org/1999/xlink">
    <!-- Generator: Sketch 57.1 (83088) - https://sketch.com -->
    <title>building</title>
    <desc>Created with Sketch.</desc>
    <g id="Партнёры" stroke="none" stroke-width="1" fill="none" fill-rule="evenodd">
        <g id="Меню-XS" transform="translate(-63.000000, -322.000000)" fill="#FFFFFF" fill-rule="nonzero">
            <g id="Group-7" transform="translate(62.000000, 216.000000)">
                <g id="Group-2" transform="translate(1.000000, 106.000000)">
                    <g id="building">
                        <path d="M15.1063594,10.0953281 L2.68139063,10.0953281 C2.48723437,10.0953281 2.32982813,10.2526875 2.32982813,10.4468906 L2.32982813,12 C2.32982813,12.1942031 2.48723437,12.3515625 2.68139063,12.3515625 L3.1063125,12.3515625 L3.1063125,23.6483438 C3.1063125,23.8425469 3.26371875,23.9999063 3.457875,23.9999063 L14.3298281,23.9999063 C14.5240312,23.9999063 14.6813906,23.8425469 14.6813906,23.6483438 L14.6813906,12.3515625 L15.1062187,12.3515625 C15.300375,12.3515625 15.457875,12.1942031 15.457875,12 L15.457875,10.4468906 C15.457875,10.3537031 15.4208437,10.2642656 15.3549375,10.1983125 C15.2889844,10.1323594 15.1995937,10.0953281 15.1063594,10.0953281 Z M13.9782656,13.2016406 L3.8094375,13.2016406 L3.8094375,12.3516563 L13.9782656,12.3516563 L13.9782656,13.2016406 Z M3.8094375,23.2967813 L3.8094375,13.9047656 L13.9782656,13.9047656 L13.9782656,23.2967813 L3.8094375,23.2967813 Z M14.7547969,11.6484375 L3.03295313,11.6484375 L3.03295313,10.7984531 L14.7547969,10.7984531 L14.7547969,11.6484375 Z" id="Shape"></path>
                        <path d="M8.11729688,17.0844375 L8.08054688,17.0844375 L8.08054688,15.1063125 C8.08054688,14.9121094 7.92314063,14.75475 7.72898438,14.75475 L5.39920313,14.75475 C5.20504688,14.75475 5.04764063,14.9121094 5.04764063,15.1063125 L5.04764063,17.0844375 L5.01098438,17.0844375 C4.81682813,17.0844375 4.65942188,17.2417969 4.65942188,17.436 C4.65942188,17.6301562 4.81682813,17.7875625 5.01098438,17.7875625 L5.397375,17.7875625 C5.39798438,17.7875625 5.39859375,17.7876562 5.39920313,17.7876562 L7.72898438,17.7876562 C7.72959375,17.7876562 7.73020313,17.7875625 7.7308125,17.7875625 L8.11729688,17.7875625 C8.31145313,17.7875625 8.46885938,17.6301562 8.46885938,17.436 C8.46885938,17.2417969 8.31145313,17.0844375 8.11729688,17.0844375 Z M5.7508125,15.457875 L7.37746875,15.457875 L7.37746875,17.0844375 L5.7508125,17.0844375 L5.7508125,15.457875 Z" id="Shape"></path>
                        <path d="M12.7766719,17.0844375 L12.7399687,17.0844375 L12.7399687,15.1063125 C12.7399687,14.9121094 12.5826094,14.75475 12.3884062,14.75475 L10.058625,14.75475 C9.86446875,14.75475 9.7070625,14.9121094 9.7070625,15.1063125 L9.7070625,17.0844375 L9.67040625,17.0844375 C9.47625,17.0844375 9.31884375,17.2417969 9.31884375,17.436 C9.31884375,17.6301562 9.47625,17.7875625 9.67040625,17.7875625 L10.0567969,17.7875625 C10.0574062,17.7875625 10.0580156,17.7876562 10.058625,17.7876562 L12.3884062,17.7876562 C12.3890156,17.7876562 12.389625,17.7875625 12.3902344,17.7875625 L12.7767187,17.7875625 C12.9709219,17.7875625 13.1282812,17.6301562 13.1282812,17.436 C13.1282344,17.2417969 12.9708281,17.0844375 12.7766719,17.0844375 Z M10.4101875,15.457875 L12.0368437,15.457875 L12.0368437,17.0844375 L10.4101875,17.0844375 L10.4101875,15.457875 Z" id="Shape"></path>
                        <path d="M8.11729688,21.743625 L8.08054688,21.743625 L8.08054688,19.7655469 C8.08054688,19.5713437 7.92314063,19.4139844 7.72898438,19.4139844 L5.39920313,19.4139844 C5.20504688,19.4139844 5.04764063,19.5713437 5.04764063,19.7655469 L5.04764063,21.743625 L5.01098438,21.743625 C4.81682813,21.743625 4.65942188,21.9010312 4.65942188,22.0951875 C4.65942188,22.2893906 4.81682813,22.44675 5.01098438,22.44675 L5.397375,22.44675 C5.39798438,22.44675 5.39859375,22.4468437 5.39920313,22.4468437 L7.72898438,22.4468437 C7.72959375,22.4468437 7.73020313,22.44675 7.7308125,22.44675 L8.11729688,22.44675 C8.31145313,22.44675 8.46885938,22.2893906 8.46885938,22.0951875 C8.46885938,21.9010312 8.31145313,21.743625 8.11729688,21.743625 Z M5.7508125,20.1171094 L7.37746875,20.1171094 L7.37746875,21.743625 L5.7508125,21.743625 L5.7508125,20.1171094 Z" id="Shape"></path>
                        <path d="M12.7766719,21.743625 L12.7399687,21.743625 L12.7399687,19.7655469 C12.7399687,19.5713437 12.5826094,19.4139844 12.3884062,19.4139844 L10.058625,19.4139844 C9.86446875,19.4139844 9.7070625,19.5713437 9.7070625,19.7655469 L9.7070625,21.743625 L9.67040625,21.743625 C9.47625,21.743625 9.31884375,21.9010312 9.31884375,22.0951875 C9.31884375,22.2893906 9.47625,22.44675 9.67040625,22.44675 L10.0567969,22.44675 C10.0574062,22.44675 10.0580156,22.4468437 10.058625,22.4468437 L12.3884062,22.4468437 C12.3890156,22.4468437 12.389625,22.44675 12.3902344,22.44675 L12.7767187,22.44675 C12.9709219,22.44675 13.1282812,22.2893906 13.1282812,22.0951875 C13.1282344,21.9010312 12.9708281,21.743625 12.7766719,21.743625 Z M10.4101875,20.1171094 L12.0368437,20.1171094 L12.0368437,21.743625 L10.4101875,21.743625 L10.4101875,20.1171094 Z" id="Shape"></path>
                        <path d="M23.6484375,4.65932812 L22.4469375,4.65932812 L22.4469375,4.23435937 C22.4469375,4.04015625 22.2895781,3.88279687 22.095375,3.88279687 L20.8937344,3.88279687 L20.8937344,2.68120312 C20.8937344,2.487 20.736375,2.32964062 20.5421719,2.32964062 L19.340625,2.32964062 L19.340625,0.3515625 C19.340625,0.157359375 19.1832656,0 18.9890625,0 C18.7948594,0 18.6375,0.157359375 18.6375,0.3515625 L18.6375,0.847453125 L1.86529688,4.65928125 L0.351609375,4.65928125 C0.350671875,4.65928125 0.349734375,4.65942187 0.348796875,4.65942187 C0.342796875,4.65946875 0.33684375,4.65998437 0.330890625,4.6603125 C0.325125,4.66064062 0.319265625,4.66078125 0.31359375,4.66139062 C0.31003125,4.66176562 0.306515625,4.66251562 0.303,4.66298437 C0.260625,4.66884375 0.220546875,4.68192187 0.184359375,4.70151562 C0.1843125,4.7015625 0.18421875,4.7015625 0.184171875,4.70160937 C0.180234375,4.70376562 0.17653125,4.70629687 0.1726875,4.70859375 C0.160734375,4.71567187 0.149203125,4.72345312 0.138046875,4.73203125 C0.134671875,4.73460937 0.131109375,4.737 0.12778125,4.73971875 C0.12403125,4.7428125 0.120515625,4.746375 0.116859375,4.74965625 C0.111890625,4.75415625 0.106828125,4.75851562 0.10209375,4.76329687 C0.099375,4.7660625 0.09684375,4.76910937 0.09421875,4.77196875 C0.088828125,4.77773437 0.083484375,4.78354687 0.078515625,4.7896875 C0.07809375,4.79020312 0.077578125,4.79067188 0.07715625,4.79123438 C0.075140625,4.79376562 0.0735,4.7964375 0.071578125,4.79901562 C0.066890625,4.80520313 0.062203125,4.8114375 0.0579375,4.818 C0.05540625,4.82179687 0.053203125,4.82573437 0.05090625,4.829625 C0.047296875,4.83557812 0.043734375,4.84153125 0.0405,4.84767187 C0.038109375,4.85217187 0.03609375,4.85676563 0.0339375,4.8613125 C0.03121875,4.86707812 0.0285,4.87279687 0.026109375,4.87875 C0.024046875,4.8838125 0.0223125,4.88892187 0.02053125,4.89403125 C0.018515625,4.89970312 0.0165,4.90532812 0.0148125,4.91109375 C0.013171875,4.916625 0.011859375,4.92220312 0.010546875,4.92778125 C0.0091875,4.93326562 0.007828125,4.93875 0.00675,4.944375 C0.005578125,4.95051562 0.00478125,4.95670312 0.0039375,4.96289062 C0.003234375,4.96809375 0.002390625,4.97320312 0.001921875,4.9785 C0.001265625,4.9854375 0.001078125,4.99232812 0.000890625,4.99926562 C0.00075,5.00315625 0.00028125,5.00695312 0.00028125,5.01089062 L0.00028125,8.11720312 C0.00028125,8.31140625 0.1576875,8.46876562 0.35184375,8.46876562 L0.776859375,8.46876562 L0.776859375,14.811 C0.3264375,14.959125 0.00028125,15.3834375 0.00028125,15.8827969 C0.00028125,16.3821562 0.326484375,16.8064687 0.776859375,16.9545937 L0.776859375,17.1404062 C0.3264375,17.2884844 0.00028125,17.713125 0.00028125,18.2124844 C0.00028125,18.8346094 0.50634375,19.3406719 1.12842188,19.3406719 C1.7505,19.3406719 2.2565625,18.8345625 2.2565625,18.2124844 C2.2565625,18.0182812 2.09915625,17.8609219 1.905,17.8609219 C1.71084375,17.8609219 1.5534375,18.0182812 1.5534375,18.2124844 C1.5534375,18.4468594 1.36279688,18.6375469 1.12842188,18.6375469 C0.894046875,18.6375469 0.70340625,18.4468594 0.70340625,18.2124844 C0.70340625,17.9781094 0.894046875,17.7874687 1.12842188,17.7874687 C1.32257813,17.7874687 1.47998438,17.6301094 1.47998438,17.4359062 L1.47998438,16.9546406 C1.93040625,16.8065156 2.2565625,16.3822031 2.2565625,15.8828437 C2.2565625,15.3834844 1.93035938,14.9591719 1.47998438,14.8110469 L1.47998438,8.46871875 L15.5315156,8.46871875 L15.5315156,8.8936875 C15.5315156,9.08789062 15.688875,9.24525 15.8830781,9.24525 L16.3080937,9.24525 L16.3080937,10.4468906 C16.3080937,10.6410937 16.4654531,10.7984531 16.6596562,10.7984531 L17.084625,10.7984531 L17.084625,23.6484375 C17.084625,23.6522812 17.0850937,23.6560312 17.0851875,23.6598281 C17.0854219,23.6663437 17.0856094,23.6728594 17.0861719,23.6793281 C17.0866875,23.6853281 17.0875781,23.6911875 17.088375,23.6970469 C17.089125,23.7022969 17.0897813,23.7075 17.0907656,23.7127031 C17.0919844,23.7192656 17.0934844,23.7256875 17.0950781,23.7321094 C17.0962031,23.7366562 17.0972812,23.7412031 17.0985937,23.7457031 C17.1004687,23.7521719 17.1025781,23.7585 17.1047812,23.7648281 C17.106375,23.7693281 17.1079219,23.7738281 17.1097031,23.7782344 C17.1120469,23.7840937 17.114625,23.7898594 17.11725,23.7955781 C17.1194531,23.8003594 17.1216562,23.8050937 17.1240938,23.8097812 C17.1267656,23.8148906 17.1295781,23.8198594 17.1324844,23.8248281 C17.1353906,23.8298438 17.1383906,23.8348594 17.1415781,23.8397812 C17.1444375,23.8441875 17.1474844,23.8485 17.1505312,23.8527656 C17.1541406,23.8577813 17.1577969,23.8627969 17.1616875,23.8676719 C17.1649687,23.87175 17.1683906,23.8756875 17.1718125,23.8795781 C17.1758438,23.8841719 17.1798281,23.8887187 17.1840937,23.8930781 C17.1881719,23.8972969 17.1924844,23.9012813 17.19675,23.9052656 C17.2006875,23.9089219 17.2045781,23.9126719 17.20875,23.9161406 C17.2141875,23.9207812 17.2198594,23.9250469 17.2255781,23.9293594 C17.22825,23.931375 17.2306875,23.9335781 17.2334531,23.9355469 C17.2340625,23.9359688 17.2347187,23.93625 17.2353281,23.9366719 C17.2487812,23.9460469 17.2629375,23.9543906 17.2776562,23.9618437 C17.2804688,23.9632969 17.2832812,23.9645625 17.2861406,23.9659219 C17.3006719,23.9728125 17.3155781,23.9790469 17.3311406,23.9839219 C17.3312812,23.9839687 17.3314219,23.9840625 17.3315625,23.9840625 C17.3462813,23.9886562 17.3615625,23.9918906 17.3770312,23.9945156 C17.38125,23.9952187 17.3854688,23.995875 17.3896875,23.9964375 C17.4040312,23.9983125 17.4185625,23.9995781 17.433375,23.9999062 C17.4342187,23.9999062 17.4350625,23.9999062 17.4359062,23.9999062 C17.4361875,23.9999062 17.4364219,23.9999062 17.4367031,23.9999062 L20.5425,23.9999062 C20.7367031,23.9999062 20.8940625,23.8425 20.8940625,23.6482969 L20.8940625,10.7984531 L21.3190312,10.7984531 C21.5132344,10.7984531 21.6705937,10.6410937 21.6705937,10.4468906 L21.6705937,9.24525 L22.0956094,9.24525 C22.2898125,9.24525 22.4471719,9.08789062 22.4471719,8.8936875 L22.4471719,8.46867187 L23.6484375,8.46867187 C23.8426406,8.46867187 24,8.3113125 24,8.11710937 L24,5.01089062 C24,4.81673437 23.8426406,4.65932812 23.6484375,4.65932812 Z M1.1281875,16.3077656 C0.8938125,16.3077656 0.703171875,16.117125 0.703171875,15.88275 C0.703171875,15.648375 0.8938125,15.4577344 1.1281875,15.4577344 C1.3625625,15.4577344 1.55320313,15.648375 1.55320313,15.88275 C1.55320313,16.117125 1.3625625,16.3077656 1.1281875,16.3077656 Z M20.1906563,3.88279688 L17.7876094,3.88279688 L17.7876094,3.03276563 L20.1906563,3.03276563 L20.1906563,3.88279688 Z M18.6375469,2.32964063 L17.4360469,2.32964063 C17.2418438,2.32964063 17.0844844,2.487 17.0844844,2.68120313 L17.0844844,3.88279688 L15.8828437,3.88279688 C15.6886406,3.88279688 15.5312812,4.04015625 15.5312812,4.23435938 L15.5312812,4.65928125 L5.0379375,4.65928125 L18.6375469,1.56848437 L18.6375469,2.32964063 Z M1.9033125,5.36240625 C1.9036875,5.36240625 1.90401563,5.3625 1.90439063,5.3625 C1.90490625,5.3625 1.90546875,5.36240625 1.90603125,5.36240625 L3.88284375,5.36240625 L3.88284375,7.38567187 L1.35375,5.36240625 L1.9033125,5.36240625 Z M4.58596875,5.742375 L7.11501563,7.76559375 L4.58596875,7.76559375 L4.58596875,5.742375 Z M5.23659375,5.36240625 L7.7656875,5.36240625 L7.7656875,7.38567187 L5.23659375,5.36240625 Z M8.46876562,5.74232812 L10.9978125,7.76559375 L8.46876562,7.76559375 L8.46876562,5.74232812 Z M9.11939063,5.36240625 L11.6484375,5.36240625 L11.6484375,7.385625 L9.11939063,5.36240625 Z M12.3516094,5.742375 L14.8806094,7.76559375 L12.3516094,7.76559375 L12.3516094,5.742375 Z M13.0022344,5.36240625 L15.5312812,5.36240625 L15.5312812,7.38567187 L13.0022344,5.36240625 Z M0.703171875,5.742375 L3.23221875,7.76559375 L0.703171875,7.76559375 L0.703171875,5.742375 Z M20.1907031,18.8963438 L18.1145156,18.8963438 L20.1907031,15.9550313 L20.1907031,18.8963438 Z M17.7875625,18.14025 L17.7875625,15.1989375 L19.8637969,15.1989375 L17.7875625,18.14025 Z M17.7875625,19.5994687 L19.8637969,19.5994687 L17.7875625,22.5407812 L17.7875625,19.5994687 Z M20.1907031,14.4958125 L18.1145156,14.4958125 L20.1907031,11.5545 L20.1907031,14.4958125 Z M19.86375,10.7984531 L17.7875625,13.7397188 L17.7875625,10.7984531 L19.86375,10.7984531 L19.86375,10.7984531 Z M18.1144688,23.296875 L20.1906563,20.3555625 L20.1906563,23.296875 L18.1144688,23.296875 Z M20.9672344,10.0953281 L20.5440469,10.0953281 C20.5434375,10.0953281 20.5428281,10.0952344 20.5422187,10.0952344 L17.4359531,10.0952344 C17.4353438,10.0952344 17.4347344,10.0953281 17.434125,10.0953281 L17.0109375,10.0953281 L17.0109375,9.24525 L20.9671406,9.24525 L20.9671406,10.0953281 L20.9672344,10.0953281 Z M21.3187969,8.542125 L16.6594687,8.542125 L16.2344531,8.542125 L16.2344531,8.11715625 L16.2344531,5.01084375 L16.2344531,4.58592188 L21.7438594,4.58592188 L21.7438594,5.01 C21.7438594,5.01032813 21.7438594,5.01060938 21.7438594,5.01089063 L21.7438594,8.11710938 C21.7438594,8.1174375 21.7438594,8.11771875 21.7438594,8.118 L21.7438594,8.542125 L21.3187969,8.542125 L21.3187969,8.542125 Z M23.296875,7.76554688 L22.4469375,7.76554688 L22.4469375,5.36245313 L23.296875,5.36245313 L23.296875,7.76554688 Z" id="Shape"></path>
                        <path d="M18.9891094,5.43585937 C18.3670313,5.43585937 17.8610156,5.94192187 17.8610156,6.56395312 C17.8610156,7.18598438 18.3670781,7.69204687 18.9891094,7.69204687 C19.6111406,7.69204687 20.1172031,7.18598438 20.1172031,6.56395312 C20.1172031,5.94192187 19.6111406,5.43585937 18.9891094,5.43585937 Z M18.9891094,6.98896875 C18.7547812,6.98896875 18.5641406,6.79832812 18.5641406,6.564 C18.5641406,6.32967187 18.7547813,6.13903125 18.9891094,6.13903125 C19.2234375,6.13903125 19.4140781,6.32967187 19.4140781,6.564 C19.4140781,6.79828125 19.2234375,6.98896875 18.9891094,6.98896875 Z" id="Shape"></path>
                    </g>
                </g>
            </g>
        </g>
    </g>
</svg>