<?xml version="1.0" encoding="UTF-8"?>
<svg width="20px" height="20px" viewBox="0 0 20 20" version="1.1" xmlns="http://www.w3.org/2000/svg" xmlns:xlink="http://www.w3.org/1999/xlink">
    <!-- Generator: Sketch 57.1 (83088) - https://sketch.com -->
    <title></title>
    <desc>Created with Sketch.</desc>
    <g id="Партнёры" stroke="none" stroke-width="1" fill="none" fill-rule="evenodd">
        <g id="Партнёрам-XS" transform="translate(-285.000000, -25.000000)" fill="#9BCCDE" fill-rule="nonzero">
            <g id="1й-блок" transform="translate(-766.000000, -406.000000)">
                <g id="Group" transform="translate(781.000000, 416.000000)">
                    <path d="M290,30.7954545 C290,31.3068182 289.772727,32.3011364 289.559659,32.7698864 C289.261364,33.4659091 288.465909,33.9204545 287.826705,34.2755682 C286.988636,34.7301136 286.136364,35 285.184659,35 C283.863636,35 282.670455,34.4602273 281.463068,34.0198864 C280.596591,33.7073864 279.758523,33.3238636 278.977273,32.8409091 C276.5625,31.3494318 273.650568,28.4375 272.159091,26.0227273 C271.676136,25.2414773 271.292614,24.4034091 270.980114,23.5369318 C270.539773,22.3295455 270,21.1363636 270,19.8153409 C270,18.8636364 270.269886,18.0113636 270.724432,17.1732955 C271.079545,16.5340909 271.534091,15.7386364 272.230114,15.4403409 C272.698864,15.2272727 273.693182,15 274.204545,15 C274.303977,15 274.403409,15 274.502841,15.0426136 C274.801136,15.1420455 275.113636,15.8380682 275.255682,16.1221591 C275.710227,16.9318182 276.150568,17.7556818 276.619318,18.5511364 C276.846591,18.9204545 277.272727,19.375 277.272727,19.8153409 C277.272727,20.6818182 274.701705,21.9460227 274.701705,22.7130682 C274.701705,23.0965909 275.056818,23.59375 275.255682,23.9346591 C276.690341,26.5198864 278.480114,28.3096591 281.065341,29.7443182 C281.40625,29.9431818 281.903409,30.2982955 282.286932,30.2982955 C283.053977,30.2982955 284.318182,27.7272727 285.184659,27.7272727 C285.625,27.7272727 286.079545,28.1534091 286.448864,28.3806818 C287.244318,28.8494318 288.068182,29.2897727 288.877841,29.7443182 C289.161932,29.8863636 289.857955,30.1988636 289.957386,30.4971591 C290,30.5965909 290,30.6960227 290,30.7954545 Z" id=""></path>
                </g>
            </g>
        </g>
    </g>
</svg>