<svg width="103" height="23" viewBox="0 0 103 23" fill="none" xmlns="http://www.w3.org/2000/svg">
<path d="M17.53 16.75H6.37L4.06 22H0.97L10.48 0.999999H13.45L22.99 22H19.84L17.53 16.75ZM16.48 14.35L11.95 4.06L7.42 14.35H16.48ZM43.2494 0.999999L34.0394 22H31.0694L21.8294 0.999999H25.0694L32.6294 18.25L40.2494 0.999999H43.2494ZM61.1673 19.39V22H45.9273V0.999999H60.7473V3.61H48.9273V10.06H59.4573V12.61H48.9273V19.39H61.1673ZM80.065 22L75.535 15.55C74.975 15.59 74.535 15.61 74.215 15.61H69.025V22H66.025V0.999999H74.215C76.935 0.999999 79.075 1.65 80.635 2.95C82.195 4.25 82.975 6.04 82.975 8.32C82.975 9.94 82.575 11.32 81.775 12.46C80.975 13.6 79.835 14.43 78.355 14.95L83.335 22H80.065ZM74.125 13.06C76.025 13.06 77.475 12.65 78.475 11.83C79.475 11.01 79.975 9.84 79.975 8.32C79.975 6.8 79.475 5.64 78.475 4.84C77.475 4.02 76.025 3.61 74.125 3.61H69.025V13.06H74.125ZM93.9419 22.24C92.3619 22.24 90.8319 22 89.3519 21.52C87.8919 21.02 86.7419 20.38 85.9019 19.6L87.0119 17.26C87.8119 17.98 88.8319 18.57 90.0719 19.03C91.3319 19.47 92.6219 19.69 93.9419 19.69C95.6819 19.69 96.9819 19.4 97.8419 18.82C98.7019 18.22 99.1319 17.43 99.1319 16.45C99.1319 15.73 98.8919 15.15 98.4119 14.71C97.9519 14.25 97.3719 13.9 96.6719 13.66C95.9919 13.42 95.0219 13.15 93.7619 12.85C92.1819 12.47 90.9019 12.09 89.9219 11.71C88.9619 11.33 88.1319 10.75 87.4319 9.97C86.7519 9.17 86.4119 8.1 86.4119 6.76C86.4119 5.64 86.7019 4.63 87.2819 3.73C87.8819 2.83 88.7819 2.11 89.9819 1.57C91.1819 1.03 92.6719 0.76 94.4519 0.76C95.6919 0.76 96.9119 0.92 98.1119 1.24C99.3119 1.56 100.342 2.02 101.202 2.62L100.212 5.02C99.3319 4.46 98.3919 4.04 97.3919 3.76C96.3919 3.46 95.4119 3.31 94.4519 3.31C92.7519 3.31 91.4719 3.62 90.6119 4.24C89.7719 4.86 89.3519 5.66 89.3519 6.64C89.3519 7.36 89.5919 7.95 90.0719 8.41C90.5519 8.85 91.1419 9.2 91.8419 9.46C92.5619 9.7 93.5319 9.96 94.7519 10.24C96.3319 10.62 97.6019 11 98.5619 11.38C99.5219 11.76 100.342 12.34 101.022 13.12C101.722 13.9 102.072 14.95 102.072 16.27C102.072 17.37 101.772 18.38 101.172 19.3C100.572 20.2 99.6619 20.92 98.4419 21.46C97.2219 21.98 95.7219 22.24 93.9419 22.24Z" fill="#474747"/>
</svg>
