<?xml version="1.0" encoding="UTF-8"?>
<svg width="24px" height="24px" viewBox="0 0 24 24" version="1.1" xmlns="http://www.w3.org/2000/svg" xmlns:xlink="http://www.w3.org/1999/xlink">
    <!-- Generator: Sketch 51.3 (57544) - http://www.bohemiancoding.com/sketch -->
    <title>cityscape</title>
    <desc>Created with Sketch.</desc>
    <defs></defs>
    <g id="Page-1" stroke="none" stroke-width="1" fill="none" fill-rule="evenodd">
        <g id="2XS-меню" transform="translate(-89.000000, -310.000000)" fill="#FFFFFF" fill-rule="nonzero">
            <g id="cityscape" transform="translate(89.000000, 310.000000)">
                <path d="M23.6435625,18.0959062 L21.2950313,18.0959062 L21.2950313,15.1834687 C21.2950313,14.9866406 21.1354219,14.8270312 20.9385938,14.8270312 C20.7417656,14.8270312 20.5821563,14.9866406 20.5821563,15.1834687 L20.5821563,23.2498594 L15.712125,23.2498594 L14.4649219,23.2498594 L14.4649219,21.6602812 L14.4649219,20.5910156 L14.4649219,18.5415469 L14.4649219,17.4722812 L14.4649219,15.4228594 L14.4649219,14.3535938 L14.4649219,12.6606094 L20.5821563,12.6606094 L20.5821563,13.5199688 C20.5821563,13.7167969 20.7417656,13.8764062 20.9385937,13.8764062 C21.1354219,13.8764062 21.2950313,13.7167969 21.2950313,13.5199688 L21.2950313,12.3042188 C21.2950313,12.1073906 21.1354219,11.9477812 20.9385937,11.9477812 L16.0685625,11.9477812 L16.0685625,0.39375 C16.0685625,0.196921875 15.9089531,0.0373125 15.712125,0.0373125 L8.29875,0.0373125 C8.10192187,0.0373125 7.9423125,0.196921875 7.9423125,0.39375 L7.9423125,5.725875 L3.33164063,5.725875 C3.1348125,5.725875 2.97520313,5.88548437 2.97520313,6.0823125 L2.97520313,14.8457812 L0.3564375,14.8457812 C0.159609375,14.8457812 0,15.0053906 0,15.2022187 L0,23.60625 C0,23.8030781 0.159609375,23.9626875 0.3564375,23.9626875 L3.33164063,23.9626875 L10.7451094,23.9626875 C10.7454375,23.9626875 10.7457187,23.9626406 10.746,23.9626406 L14.1084844,23.9626406 L15.712125,23.9626406 L20.9377031,23.9626406 C20.9379844,23.9626406 20.9383125,23.9626875 20.9385937,23.9626875 L23.6435625,23.9626875 C23.8403906,23.9626875 24,23.8030781 24,23.60625 L24,18.4523437 C24,18.2555156 23.8403906,18.0959062 23.6435625,18.0959062 Z M2.97520312,23.2498125 L0.712875,23.2498125 L0.712875,15.5586562 L2.97520312,15.5586562 L2.97520312,23.2498125 Z M10.3886719,23.2498125 L8.29875,23.2498125 L8.29875,23.2498594 L3.68807813,23.2498594 L3.68807813,21.2788125 L10.3886719,21.2788125 L10.3886719,23.2498125 Z M10.3886719,18.1660312 L7.17628125,18.1660312 C6.97945312,18.1660312 6.81984375,18.3256406 6.81984375,18.5224688 C6.81984375,18.7192969 6.97945312,18.8789062 7.17628125,18.8789062 L10.3886719,18.8789062 L10.3886719,20.5659375 L3.68807813,20.5659375 L3.68807813,18.8789062 L5.512875,18.8789062 C5.70970312,18.8789062 5.8693125,18.7192969 5.8693125,18.5224688 C5.8693125,18.3256406 5.70970312,18.1660312 5.512875,18.1660312 L3.68807813,18.1660312 L3.68807813,16.479 L10.3886719,16.479 L10.3886719,18.1660312 Z M10.3886719,15.7662188 L3.68807813,15.7662188 L3.68807813,15.2022188 L3.68807813,14.0791406 L10.3886719,14.0791406 L10.3886719,15.7662188 Z M10.3886719,13.3663125 L3.68807813,13.3663125 L3.68807813,11.6793281 L10.3886719,11.6793281 L10.3886719,13.3663125 Z M10.3886719,10.9664531 L3.68807813,10.9664531 L3.68807813,9.27942188 L10.3886719,9.27942188 L10.3886719,10.9664531 Z M10.3886719,8.56654688 L3.68807813,8.56654688 L3.68807813,6.43870313 L10.3886719,6.43870313 L10.3886719,8.56654688 Z M13.7520469,12.3042656 L13.7520469,14.3536875 L13.7520469,15.4229531 L13.7520469,17.472375 L13.7520469,18.5416406 L13.7520469,20.5911094 L13.7520469,21.660375 L13.7520469,23.2499531 L11.1015469,23.2499531 L11.1015469,6.08226562 C11.1015469,5.8854375 10.9419844,5.72582812 10.7451094,5.72582812 L10.2591563,5.72582812 L10.2591563,5.013 C10.2591563,4.81617187 10.0995938,4.6565625 9.90271875,4.6565625 C9.70584375,4.6565625 9.54628125,4.81617187 9.54628125,5.013 L9.54628125,5.72582812 L8.6551875,5.72582812 L8.6551875,0.7501875 L15.3556406,0.7501875 L15.3556406,11.9478281 L14.1084375,11.9478281 C13.9116094,11.9478281 13.7520469,12.1073906 13.7520469,12.3042656 Z M23.287125,23.2498125 L21.2950781,23.2498125 L21.2950781,18.8087344 L23.287125,18.8087344 L23.287125,23.2498125 Z" id="Shape"></path>
                <path d="M14.1084844,7.75982813 C13.9116094,7.75982813 13.7520469,7.9194375 13.7520469,8.11626563 L13.7520469,9.18553125 C13.7520469,9.38240625 13.9116562,9.54196875 14.1084844,9.54196875 C14.3053594,9.54196875 14.4649219,9.38235938 14.4649219,9.18553125 L14.4649219,8.11626563 C14.4649219,7.9194375 14.3053594,7.75982813 14.1084844,7.75982813 Z" id="Shape"></path>
                <path d="M12.005625,7.75982813 C11.80875,7.75982813 11.6491875,7.9194375 11.6491875,8.11626563 L11.6491875,9.18553125 C11.6491875,9.38240625 11.8087969,9.54196875 12.005625,9.54196875 C12.2025,9.54196875 12.3620625,9.38235938 12.3620625,9.18553125 L12.3620625,8.11626563 C12.3620625,7.9194375 12.2025,7.75982813 12.005625,7.75982813 Z" id="Shape"></path>
                <path d="M14.1084844,4.6565625 C13.9116094,4.6565625 13.7520469,4.81617188 13.7520469,5.013 L13.7520469,6.08226562 C13.7520469,6.27909375 13.9116562,6.43870313 14.1084844,6.43870313 C14.3053594,6.43870313 14.4649219,6.27909375 14.4649219,6.08226562 L14.4649219,5.013 C14.4649219,4.81617188 14.3053594,4.6565625 14.1084844,4.6565625 Z" id="Shape"></path>
                <path d="M12.005625,4.6565625 C11.80875,4.6565625 11.6491875,4.81617188 11.6491875,5.013 L11.6491875,6.08226562 C11.6491875,6.27909375 11.8087969,6.43870313 12.005625,6.43870313 C12.2025,6.43870313 12.3620625,6.27909375 12.3620625,6.08226562 L12.3620625,5.013 C12.3620625,4.81617188 12.2025,4.6565625 12.005625,4.6565625 Z" id="Shape"></path>
                <path d="M9.90271875,1.55329688 C9.70584375,1.55329688 9.54628125,1.71290625 9.54628125,1.90973437 L9.54628125,2.979 C9.54628125,3.17582812 9.70589063,3.3354375 9.90271875,3.3354375 C10.0995938,3.3354375 10.2591563,3.17582812 10.2591563,2.979 L10.2591563,1.90973437 C10.2591563,1.71290625 10.0996406,1.55329688 9.90271875,1.55329688 Z" id="Shape"></path>
                <path d="M14.1084844,1.55329688 C13.9116094,1.55329688 13.7520469,1.71290625 13.7520469,1.90973437 L13.7520469,2.979 C13.7520469,3.17582812 13.9116562,3.3354375 14.1084844,3.3354375 C14.3053594,3.3354375 14.4649219,3.17582812 14.4649219,2.979 L14.4649219,1.90973437 C14.4649219,1.71290625 14.3053594,1.55329688 14.1084844,1.55329688 Z" id="Shape"></path>
                <path d="M12.005625,1.55329688 C11.80875,1.55329688 11.6491875,1.71290625 11.6491875,1.90973437 L11.6491875,2.979 C11.6491875,3.17582812 11.8087969,3.3354375 12.005625,3.3354375 C12.2025,3.3354375 12.3620625,3.17582812 12.3620625,2.979 L12.3620625,1.90973437 C12.3620625,1.71290625 12.2025,1.55329688 12.005625,1.55329688 Z" id="Shape"></path>
                <path d="M13.9180312,10.9340625 C13.7737969,11.0248125 13.7130937,11.213625 13.7794219,11.3712187 C13.836375,11.5056562 13.9703437,11.594625 14.1170156,11.5910156 C14.2664531,11.5873594 14.3994375,11.4885 14.4467344,11.34675 C14.5506562,11.0349844 14.194125,10.7603437 13.9180312,10.9340625 Z" id="Shape"></path>
                <path d="M12.005625,10.8785156 C11.80875,10.8785156 11.6491875,11.038125 11.6491875,11.2349531 L11.6491875,12.3042188 C11.6491875,12.5010938 11.8087969,12.6606563 12.005625,12.6606563 C12.2025,12.6606563 12.3620625,12.5010469 12.3620625,12.3042188 L12.3620625,11.2349531 C12.3620625,11.0380781 12.2025,10.8785156 12.005625,10.8785156 Z" id="Shape"></path>
                <path d="M12.005625,20.2345781 C11.80875,20.2345781 11.6491875,20.3941875 11.6491875,20.5910156 L11.6491875,21.6602812 C11.6491875,21.8571094 11.8087969,22.0167187 12.005625,22.0167187 C12.2025,22.0167187 12.3620625,21.8571094 12.3620625,21.6602812 L12.3620625,20.5910156 C12.3620625,20.3941406 12.2025,20.2345781 12.005625,20.2345781 Z" id="Shape"></path>
                <path d="M12.005625,17.1158906 C11.80875,17.1158906 11.6491875,17.2755 11.6491875,17.4723281 L11.6491875,18.5415938 C11.6491875,18.7384219 11.8087969,18.8980313 12.005625,18.8980313 C12.2025,18.8980313 12.3620625,18.7384219 12.3620625,18.5415938 L12.3620625,17.4723281 C12.3620625,17.2755 12.2025,17.1158906 12.005625,17.1158906 Z" id="Shape"></path>
                <path d="M12.005625,13.99725 C11.80875,13.99725 11.6491875,14.1568594 11.6491875,14.3536875 L11.6491875,15.4229531 C11.6491875,15.6197812 11.8087969,15.7793906 12.005625,15.7793906 C12.2025,15.7793906 12.3620625,15.6197812 12.3620625,15.4229531 L12.3620625,14.3536875 C12.3620625,14.1568125 12.2025,13.99725 12.005625,13.99725 Z" id="Shape"></path>
                <path d="M19.4951719,20.1260156 L15.5519063,20.1260156 C15.3550312,20.1260156 15.1954687,20.285625 15.1954687,20.4824531 C15.1954687,20.6792812 15.3550312,20.8388906 15.5519063,20.8388906 L19.4951719,20.8388906 C19.6920469,20.8388906 19.8516094,20.6792812 19.8516094,20.4824531 C19.8516094,20.285625 19.6920938,20.1260156 19.4951719,20.1260156 Z" id="Shape"></path>
                <path d="M19.4951719,21.8108906 L15.5519063,21.8108906 C15.3550312,21.8108906 15.1954687,21.9705 15.1954687,22.1673281 C15.1954687,22.3641562 15.3550312,22.5237656 15.5519063,22.5237656 L19.4951719,22.5237656 C19.6920469,22.5237656 19.8516094,22.3641562 19.8516094,22.1673281 C19.8516094,21.9704531 19.6920938,21.8108906 19.4951719,21.8108906 Z" id="Shape"></path>
                <path d="M19.4951719,18.4412344 L15.5519063,18.4412344 C15.3550312,18.4412344 15.1954687,18.6008437 15.1954687,18.7976719 C15.1954687,18.9945 15.3550312,19.1541094 15.5519063,19.1541094 L19.4951719,19.1541094 C19.6920469,19.1541094 19.8516094,18.9945 19.8516094,18.7976719 C19.8516094,18.6008437 19.6920938,18.4412344 19.4951719,18.4412344 Z" id="Shape"></path>
                <path d="M19.4951719,13.3867031 L15.5519063,13.3867031 C15.3550312,13.3867031 15.1954687,13.5463125 15.1954687,13.7431406 C15.1954687,13.9399688 15.3550312,14.0995781 15.5519063,14.0995781 L19.4951719,14.0995781 C19.6920469,14.0995781 19.8516094,13.9399688 19.8516094,13.7431406 C19.8516094,13.5463125 19.6920938,13.3867031 19.4951719,13.3867031 Z" id="Shape"></path>
                <path d="M19.4951719,16.7563594 L15.5519063,16.7563594 C15.3550312,16.7563594 15.1954687,16.9159687 15.1954687,17.1127969 C15.1954687,17.309625 15.3550312,17.4692344 15.5519063,17.4692344 L19.4951719,17.4692344 C19.6920469,17.4692344 19.8516094,17.309625 19.8516094,17.1127969 C19.8516094,16.9159687 19.6920938,16.7563594 19.4951719,16.7563594 Z" id="Shape"></path>
                <path d="M19.4951719,15.0715781 L15.5519063,15.0715781 C15.3550312,15.0715781 15.1954687,15.2311875 15.1954687,15.4280156 C15.1954687,15.6248438 15.3550312,15.7844531 15.5519063,15.7844531 L19.4951719,15.7844531 C19.6920469,15.7844531 19.8516094,15.6248438 19.8516094,15.4280156 C19.8516094,15.2311875 19.6920938,15.0715781 19.4951719,15.0715781 Z" id="Shape"></path>
                <path d="M1.84401562,16.1251875 C1.64714062,16.1251875 1.48757812,16.2847969 1.48757812,16.481625 L1.48757812,17.4082969 C1.48757812,17.605125 1.64714062,17.7647344 1.84401562,17.7647344 C2.04089063,17.7647344 2.20045313,17.605125 2.20045313,17.4082969 L2.20045313,16.481625 C2.20045313,16.2847969 2.04084375,16.1251875 1.84401562,16.1251875 Z" id="Shape"></path>
                <path d="M1.84401562,18.5844844 C1.64714062,18.5844844 1.48757812,18.7440937 1.48757812,18.9409219 L1.48757812,19.8675938 C1.48757812,20.0644219 1.64714062,20.2240312 1.84401562,20.2240312 C2.04089063,20.2240312 2.20045313,20.0644219 2.20045313,19.8675938 L2.20045313,18.9409219 C2.20045313,18.7440469 2.04084375,18.5844844 1.84401562,18.5844844 Z" id="Shape"></path>
                <path d="M1.84401562,21.0437812 C1.64714062,21.0437812 1.48757812,21.2033906 1.48757812,21.4002187 L1.48757812,22.3268906 C1.48757812,22.5237187 1.64714062,22.6833281 1.84401562,22.6833281 C2.04089063,22.6833281 2.20045313,22.5237187 2.20045313,22.3268906 L2.20045313,21.4002187 C2.20045313,21.2033437 2.04084375,21.0437812 1.84401562,21.0437812 Z" id="Shape"></path>
                <path d="M22.291125,19.6641094 C22.09425,19.6641094 21.9346875,19.8237187 21.9346875,20.0205469 L21.9346875,21.0292969 C21.9346875,21.226125 22.09425,21.3857344 22.291125,21.3857344 C22.488,21.3857344 22.6475625,21.226125 22.6475625,21.0292969 L22.6475625,20.0205469 C22.6475625,19.8237188 22.488,19.6641094 22.291125,19.6641094 Z" id="Shape"></path>
                <path d="M21.2461406,6.90435938 L16.897875,6.90435938 C16.701,6.90435938 16.5414375,7.06396875 16.5414375,7.26079688 C16.5414375,7.457625 16.701,7.61723438 16.897875,7.61723438 L21.2461406,7.61723438 C21.4430156,7.61723438 21.6025781,7.457625 21.6025781,7.26079688 C21.6025781,7.06396875 21.4430156,6.90435938 21.2461406,6.90435938 Z" id="Shape"></path>
                <path d="M22.6005469,8.4013125 L19.4640469,8.4013125 C19.2671719,8.4013125 19.1076094,8.56092188 19.1076094,8.75775 C19.1076094,8.95457813 19.2671719,9.1141875 19.4640469,9.1141875 L22.6005469,9.1141875 C22.7974219,9.1141875 22.9569844,8.95457813 22.9569844,8.75775 C22.9569844,8.56092188 22.7974219,8.4013125 22.6005469,8.4013125 Z" id="Shape"></path>
                <path d="M6.41910938,2.69864062 L3.28260938,2.69864062 C3.08573437,2.69864062 2.92617188,2.85825 2.92617188,3.05507812 C2.92617188,3.25190625 3.08578125,3.41151562 3.28260938,3.41151562 L6.41910938,3.41151562 C6.61598438,3.41151562 6.77554688,3.25190625 6.77554688,3.05507812 C6.77554688,2.85825 6.61603125,2.69864062 6.41910938,2.69864062 Z" id="Shape"></path>
                <path d="M4.63701562,3.8866875 L1.5005625,3.8866875 C1.3036875,3.8866875 1.144125,4.04629688 1.144125,4.243125 C1.144125,4.43995312 1.30373438,4.5995625 1.5005625,4.5995625 L4.6370625,4.5995625 C4.8339375,4.5995625 4.9935,4.43995312 4.9935,4.243125 C4.9935,4.04629688 4.8339375,3.8866875 4.63701562,3.8866875 Z" id="Shape"></path>
            </g>
        </g>
    </g>
</svg>