<?xml version="1.0" encoding="UTF-8"?>
<svg width="24px" height="20px" viewBox="0 0 24 20" version="1.1" xmlns="http://www.w3.org/2000/svg" xmlns:xlink="http://www.w3.org/1999/xlink">
    <!-- Generator: Sketch 51.3 (57544) - http://www.bohemiancoding.com/sketch -->
    <title>plan</title>
    <desc>Created with Sketch.</desc>
    <defs></defs>
    <g id="Page-1" stroke="none" stroke-width="1" fill="none" fill-rule="evenodd">
        <g id="2XS-меню" transform="translate(-88.000000, -203.000000)" fill="#FFFFFF" fill-rule="nonzero">
            <g id="plan" transform="translate(100.000000, 213.000000) scale(1, -1) rotate(-180.000000) translate(-100.000000, -213.000000) translate(88.000000, 203.000000)">
                <path d="M20.6418457,0 C18.7902832,0 17.2836914,1.51649771 17.2836914,3.38064516 L17.2836914,4.16073733 L4.72009275,4.16073733 C4.52563477,4.16073733 4.36798097,4.31944699 4.36798097,4.51539171 C4.36798097,4.7111521 4.52563477,4.87004608 4.72009275,4.87004608 L17.2836914,4.87004608 L17.2836914,6.80847926 L2.98242187,6.80847926 C2.78778075,6.80847926 2.63012695,6.96718893 2.63012695,7.16313364 L2.63012695,17.3758525 C2.63012695,17.5717972 2.78778075,17.7305069 2.98242187,17.7305069 L19.5146484,17.7305069 C19.7092896,17.7305069 19.8669434,17.5717972 19.8669434,17.3758525 L19.8669434,14.0645161 C20.1121216,13.9889401 20.3723145,13.9480184 20.6418457,13.9480184 C22.1050415,13.9480184 23.2954102,15.1463594 23.2954102,16.6193548 C23.2954102,18.0923502 22.1050415,19.2906912 20.6418457,19.2906912 L0.704589844,19.2906912 L0.704589844,4.87004608 L2.98242187,4.87004608 C3.17687991,4.87004608 3.3347168,4.7111521 3.3347168,4.51539171 C3.3347168,4.31944699 3.17687991,4.16073733 2.98242187,4.16073733 L0.352294922,4.16073733 C0.157653797,4.16073733 0,4.31944699 0,4.51539171 L0,19.6453456 C0,19.8412903 0.157653797,20 0.352294922,20 L20.6418457,20 C22.4935913,20 24,18.4835023 24,16.6193548 L24,3.38064516 C24,1.51649771 22.4935913,0 20.6418457,0 Z M17.2836914,9.83447005 L14.9824219,9.83447005 L14.9824219,7.51778802 L17.2836914,7.51778802 L17.2836914,9.83447005 Z M14.277832,16.241106 L14.277832,17.0211982 L9.34643555,17.0211982 L9.34643555,16.241106 C9.34643555,16.0453456 9.18859866,15.8864516 8.99414062,15.8864516 L7.89862059,15.8864516 C8.04766847,15.4206451 8.48254397,15.082765 8.99414062,15.082765 C9.18859866,15.082765 9.34643555,14.9238709 9.34643555,14.7281106 L9.34643555,11.323871 C9.34643555,11.1281106 9.18859866,10.9692166 8.99414062,10.9692166 L7.89862059,10.9692166 C8.04766847,10.5034101 8.48254397,10.16553 8.99414062,10.16553 C9.18859866,10.16553 9.34643555,10.006636 9.34643555,9.81087558 L9.34643555,7.51778802 L14.277832,7.51778802 L14.277832,14.7281106 C14.277832,14.9238709 14.435669,15.082765 14.630127,15.082765 L15.725647,15.082765 C15.5765991,15.5485714 15.1417237,15.8864516 14.630127,15.8864516 C14.435669,15.8864516 14.277832,16.0453456 14.277832,16.241106 Z M8.6418457,7.51778802 L8.6418457,9.49050694 C7.78692628,9.65658987 7.13891602,10.4152996 7.13891602,11.323871 C7.13891602,11.5196314 7.29656981,11.6785253 7.49121094,11.6785253 L8.6418457,11.6785253 L8.6418457,12.482212 L3.3347168,12.482212 L3.3347168,7.51778802 L8.6418457,7.51778802 Z M3.3347168,13.1915207 L8.6418457,13.1915207 L8.6418457,14.4077419 C7.78692628,14.5738249 7.13891602,15.3325346 7.13891602,16.241106 C7.13891602,16.4370507 7.29656981,16.5957604 7.49121094,16.5957604 L8.6418457,16.5957604 L8.6418457,17.0211982 L3.3347168,17.0211982 L3.3347168,13.1915207 Z M19.1623535,17.0211982 L14.9824219,17.0211982 L14.9824219,16.5620276 C15.8375244,16.3959447 16.4853516,15.636682 16.4853516,14.7281106 C16.4853516,14.5323503 16.3276978,14.3734562 16.1330566,14.3734562 L14.9824219,14.3734562 L14.9824219,10.5437788 L17.2836914,10.5437788 L17.2836914,16.6193548 C17.2836914,16.8152996 17.4415283,16.9740092 17.6359863,16.9740092 C17.8306275,16.9740092 17.9882812,16.8152996 17.9882812,16.6193548 C17.9882812,15.6973272 18.4546509,14.8831336 19.1623535,14.402765 L19.1623535,17.0211982 Z M20.6418457,13.2387097 C19.5640869,13.2387097 18.6031494,13.7526267 17.9882812,14.5498617 L17.9882812,3.38064516 C17.9882812,1.90764976 19.1786499,0.709308756 20.6418457,0.709308756 C22.1050415,0.709308756 23.2954102,1.90764976 23.2954102,3.38064516 L23.2954102,14.5498617 C22.680542,13.7526267 21.7197876,13.2387097 20.6418457,13.2387097 Z" id="Shape"></path>
            </g>
        </g>
    </g>
</svg>