<?xml version="1.0" encoding="utf-8"?>
<!-- Generator: Adobe Illustrator 23.0.4, SVG Export Plug-In . SVG Version: 6.00 Build 0)  -->
<svg version="1.1" id="Слой_1" xmlns="http://www.w3.org/2000/svg" xmlns:xlink="http://www.w3.org/1999/xlink" x="0px" y="0px"
	 viewBox="0 0 17 54" style="enable-background:new 0 0 17 54;" xml:space="preserve">
<style type="text/css">
	.st0{fill:#FFFFFF;stroke:#979797;}
</style>
<title>Oval 2 Copy 10</title>
<desc>Created with Sketch.</desc>
<g id="Сайт">
	<g id="Ход-строительства-XL" transform="translate(-637.000000, -295.000000)">
		<circle id="Oval-2-Copy-10" class="st0" cx="645.5" cy="340.8" r="7.5"/>
	</g>
</g>
</svg>
