<?xml version="1.0" encoding="UTF-8"?>
<svg width="148px" height="50px" viewBox="0 0 148 50" version="1.1" xmlns="http://www.w3.org/2000/svg" xmlns:xlink="http://www.w3.org/1999/xlink">
    <!-- Generator: Sketch 58 (84663) - https://sketch.com -->
    <title>Group</title>
    <desc>Created with Sketch.</desc>
    <g id="Сайт" stroke="none" stroke-width="1" fill="none" fill-rule="evenodd">
        <g id="Ход-строительства-XL" transform="translate(-217.000000, -256.000000)">
            <g id="Group" transform="translate(218.000000, 257.000000)">
                <path d="M7,5 L7,10 C33.302,10 51.97,18.953 71.733,28.432 C92.816,38.544 114.619,49 147,49 L147,44 C115.756,44 94.475,33.794 73.895,23.923 C53.604,14.192 34.439,5 7,5 M8,6.004 C34.682,6.225 53.524,15.263 73.462,24.825 C93.923,34.639 115.071,44.782 146,44.996 L146,47.997 C114.392,47.784 92.93,37.489 72.165,27.53 C52.547,18.121 34.002,9.228 8,9.004 L8,6.004" id="Fill-1-Copy-7" fill="#969696"></path>
                <circle id="Oval-2-Copy-14" stroke="#979797" fill="#FFFFFF" fill-rule="nonzero" cx="7.5" cy="7.5" r="7.5"></circle>
            </g>
        </g>
    </g>
</svg>