<?xml version="1.0" encoding="UTF-8"?>
<svg width="147px" height="50px" viewBox="0 0 147 50" version="1.1" xmlns="http://www.w3.org/2000/svg" xmlns:xlink="http://www.w3.org/1999/xlink">
    <!-- Generator: Sketch 58 (84663) - https://sketch.com -->
    <title>Group 4</title>
    <desc>Created with Sketch.</desc>
    <g id="Сайт" stroke="none" stroke-width="1" fill="none" fill-rule="evenodd">
        <g id="Ход-строительства-XL" transform="translate(-357.000000, -262.000000)">
            <g id="Group-4" transform="translate(358.000000, 262.000000)">
                <path d="M6,0 L6,5 C32.302,5 50.97,13.953 70.733,23.432 C91.816,33.544 113.619,44 146,44 L146,39 C114.756,39 93.475,28.794 72.895,18.923 C52.604,9.192 33.439,0 6,0 M7,1.004 C33.682,1.225 52.524,10.263 72.462,19.825 C92.923,29.639 114.071,39.782 145,39.996 L145,42.997 C113.392,42.784 91.93,32.489 71.165,22.53 C51.547,13.121 33.002,4.228 7,4.004 L7,1.004" id="Fill-1-Copy-4" fill="#969696" transform="translate(76.000000, 22.000000) scale(-1, 1) translate(-76.000000, -22.000000) "></path>
                <circle id="Oval-2-Copy-11" stroke="#979797" fill="#FFFFFF" fill-rule="nonzero" transform="translate(7.500000, 41.500000) scale(-1, 1) translate(-7.500000, -41.500000) " cx="7.5" cy="41.5" r="7.5"></circle>
            </g>
        </g>
    </g>
</svg>