<?xml version="1.0" encoding="utf-8"?>
<!-- Generator: Adobe Illustrator 23.0.4, SVG Export Plug-In . SVG Version: 6.00 Build 0)  -->
<svg version="1.1" id="Слой_1" xmlns="http://www.w3.org/2000/svg" xmlns:xlink="http://www.w3.org/1999/xlink" x="0px" y="0px"
	 viewBox="0 0 1920 959.2" style="enable-background:new 0 0 1920 959.2;" xml:space="preserve">
	<style type="text/css">
		.st00{opacity:0.5;fill:#005F72;enable-background:new    ;}
		.st01{clip-path:url(#SVGID_2_);}
		.st02{clip-path:url(#SVGID_4_);fill:#FFFFFF;}
		.st03{clip-path:url(#SVGID_6_);}
		.st04{clip-path:url(#SVGID_8_);fill:none;stroke:#365E6F;stroke-width:5;stroke-miterlimit:10;}
		.st05{fill:#005F72;}
		.st06{font-family:'Montserrat-SemiBold';}
		.st07{font-size:27.5383px;}
		.st08{clip-path:url(#SVGID_10_);}
		.st09{clip-path:url(#SVGID_12_);fill:#FFFFFF;}
		.st010{clip-path:url(#SVGID_14_);}
		.st011{clip-path:url(#SVGID_16_);fill:none;stroke:#365E6F;stroke-width:5;stroke-miterlimit:10;}
		.st012{clip-path:url(#SVGID_18_);}
		.st013{clip-path:url(#SVGID_20_);fill:#FFFFFF;}
		.st014{clip-path:url(#SVGID_22_);}
		.st015{clip-path:url(#SVGID_24_);fill:none;stroke:#365E6F;stroke-width:5;stroke-miterlimit:10;}
		.st016{clip-path:url(#SVGID_26_);}
		.st017{clip-path:url(#SVGID_28_);fill:#FFFFFF;}
		.st018{clip-path:url(#SVGID_30_);}
		.st019{clip-path:url(#SVGID_32_);fill:none;stroke:#365E6F;stroke-width:5;stroke-miterlimit:10;}
		.st020{clip-path:url(#SVGID_34_);}
		.st021{clip-path:url(#SVGID_36_);fill:#FFFFFF;}
		.st022{clip-path:url(#SVGID_38_);}
		.st023{clip-path:url(#SVGID_40_);fill:none;stroke:#365E6F;stroke-width:5;stroke-miterlimit:10;}
	</style>
	<g id="_x31_group">
	<path id="_x31_one" class="st00" d="M1766.7,585.4c-3.5-1.7-15.2-8.2-18.7-9.8c-2.1-1-4.2-2.2-6.2-3.5l2.2-11.3l-8-4.9
		c1.5-6.6-1.3-9.4-3.5-10.5c-6.6-3.5-10.9,1.8-12.5,2.7l-13.8-7.1l0.3-2.3c4.2-2.3,26.8-9.8,26.8-9.8s0.9-1.4,0.5-2.1
		c0.1-2.7,4.1-1.7,1.7-2.9l-0.2,0.1c-5.1-2.6-16.9-9.1-21.9-11.6l1.5-11.1c-2.8-2.2-18.6-10.3-22-12.7c-0.6-0.4-3-0.4-2.7-0.8v-0.2
		c0.6-0.9,1.2-1.9,1.6-3l-12.3-6c0,0,32.2-11.4,37.5-12.4c0.6-0.1-0.7-1.8-0.3-2.3c1.7-2,3.9-2.1,0.7-3c-2-0.6,2.4-1.2,2.4-2.8
		l-23.5-11.9l1.8-7.7c-2.1-0.8-8.2-4.2-8.2-4.2l10.8-4.1l0.5-1.4c-8.2-4.1-33.5-16.4-33.5-16.4l-15.6,4.3l-19.5-9.9
		c0.1-1.8-0.2-3-0.2-4.6l25.8-7.6c0.6-0.1-0.4-2.8,0.2-2.9c3-0.5,0.6-1.9,0.5-2.8c-0.3-1.8,5-2.3,1.4-3.6
		c-4.6-1.7-17.6-7.9-22.2-9.7l1.9-11.2c0,0-107.1-48.3-107.8-48.8c-5.8-6.7-12.2-1.3-14.3-6.3c0,0,30-8.4,30-7.8
		c0.1-1.3,0.2-2.6,0.1-3.9c-8.1-3.4-29.4-12.6-37.4-16.3l-8.6,1.5l0.2-5c0,0-30.8-13.1-35.5-15.1l-5.1,0.5l-28,7.1v5l18.3,8
		l-201.6,46l-0.4,8.5l8.1,4.5l-2.5,26.5v0.2l-3.3,33.6l0,0l-3.4,35.2l0.1,0.2l-3.1,32.5l-0.1-0.1l-3.1,32.4l-11.9,3.7l0,0l0,0
		l-1.8,33.9c0,0,328.7,244.6,330.8,246.3c-2.1-1.7,181.8-77.9,181.8-77.9l2.4-11.4l-29.7-18.3c0,0,34-13.7,37.2-15.2c0,0,3-5.6,3-7
		v-0.1l-27.2-17.6c0,0,18.8-7,25.8-10.5c1.7-0.9-0.6-1.6,0.3-2.5l0.7-0.3c1.1-0.4,1.2-1,0.7-1.5l-4.8-2.8l3.1-10.4l-15.4-9.2
		c0,0,26-9.7,28.8-11.4c-0.1-1.2-0.7-0.4-1-1.5l-0.1-0.3C1765.9,587.5,1770.4,587.2,1766.7,585.4z"/>
		<path class="st00" d="M1230.7,507l-1.8,33.8c0,0,328.7,244.6,330.8,246.3c-2.1-1.7,181.8-77.9,181.8-77.9l2.4-11.4l-29.7-18.3
		c0,0,34-13.7,37.2-15.2c0,0,3-5.6,3-7l-203.3,80.5L1230.7,507z"/>
		<path class="st00" d="M1480.1,630.5L1466,634l-181-124.6l11.1-4.9l-50.4-33.7l-3.1,32.4l-11.9,3.7l320.4,230.8l203.3-80.5
		l-27.2-17.6c0,0,18.8-7,25.8-10.5c2-1-1.4-1.8,1-3l-179.4,67.7L1480.1,630.5z"/>
		<path class="st00" d="M1489,592.4l-14.6,4.4l-184.9-122.4l9.8-3.5l-50.4-32.5l-3.1,32.5l50.4,33.7l-11.1,4.9l181,124.6l14.1-3.5
		l94.4,63.4l179.4-67.7c1.1-0.4,1.2-1,0.7-1.5l-4.8-2.8l3.1-10.4l-15.4-9.2c0,0,26-9.7,28.8-11.4c-0.1-1.2-0.7-0.4-1-1.5
		l-180.2,66.4L1489,592.4z"/>
		<path class="st00" d="M1766.7,585.8c-3.5-1.7-15.2-8.2-18.7-9.8c-2.1-1-4.2-2.2-6.2-3.5l2.2-11.3l-8-4.9c1.5-6.6-1.3-9.4-3.5-10.5
		c-6.6-3.5-10.9,1.8-12.5,2.7l-13.8-7.1l0.3-2.3c4.2-2.3,26.8-9.8,26.8-9.8s0.9-1.4,0.5-2.1c0.1-2.7,4.1-1.7,1.7-2.9l-184.4,64.5
		l-53.5-35.5l-14.4,3.5l-189.3-118.6l10.2-2.5l-51.9-32.7l-3.4,35.2l50.4,32.5l-9.8,3.5l184.9,122.4l14.6-4.4l96.2,63.4l180.2-66.4
		C1765.9,587.9,1770.4,587.6,1766.7,585.8z"/>
		<path class="st00" d="M1293.9,438.4L1483.2,557l14.4-3.5l53.5,35.5l184.4-64.5c-5-2.5-17.1-9.2-22.1-11.7l1.5-11.1
		c-2.8-2.2-18.6-10.3-22-12.7c-0.6-0.4-3-0.4-2.7-0.8L1585.7,523l-21.7-11.5l-53.2,14.6L1298,399.3l7.5-2.2l-50-27.7l-3.3,34
		l51.9,32.7L1293.9,438.4z"/>
		<path class="st00" d="M1719.8,458.5l-23.5-11.9l1.8-7.7c-2.1-0.8-8.2-4.2-8.2-4.2l10.8-4.1l0.5-1.4c-8.2-4.1-33.5-16.4-33.5-16.4
		l-15.6,4.3l-19.5-9.9c0.1-1.8-0.2-3-0.2-4.6l25.8-7.6c0.6-0.1-0.4-2.8,0.2-2.9c3-0.5,0.6-1.9,0.5-2.8c-0.3-1.8,5-2.3,1.4-3.6
		c-4.6-1.7-17.6-7.9-22.2-9.7l1.9-11.2c0,0-107.1-48.3-107.8-48.8c-5.8-6.7-12.2-1.3-14.3-6.3c0,0,30-8.4,30-7.8
		c0.1-1.3,0.2-2.6,0.1-3.9c-8.1-3.4-29.4-12.6-37.4-16.3l-8.6,1.5l0.2-5c0,0-30.8-13.1-35.5-15.1l-5.1,0.5l-28,7.1v5l18.3,8
		l-201.6,46l-0.4,8.5l8.1,4.5l-2.5,26.5l50,27.7l-7.5,2.2l212.8,126.8l53.2-14.6l21.7,11.5l104.5-34.8c0.6-0.9,1.2-1.9,1.6-3
		l-12.3-6c0,0,32.2-11.4,37.5-12.4c0.6-0.1-0.7-1.8-0.3-2.3c1.7-2,3.9-2.1,0.7-3C1715.4,460.7,1719.8,460.1,1719.8,458.5z"/>
		<g id="section1">
		<g>
			<g>
				<g>
					<g>
						<g>
							<defs>
								<polygon id="SVGID_33_" points="1565,364.5 1549.4,377.1 1533.9,364.5 1457.1,364.5 1457.1,295.9 1645.2,295.9
									1645.2,364.5 								"/>
							</defs>
							<clipPath id="SVGID_34_">
								<use xlink:href="#SVGID_33_"  style="overflow:visible;"/>
							</clipPath>
							<g class="st020">
								<g>
									<g>
										<g>
											<defs>
												<rect id="SVGID_35_" x="193.7" y="128.6" width="1602.8" height="1139.8"/>
											</defs>
											<clipPath id="SVGID_36_">
												<use xlink:href="#SVGID_35_"  style="overflow:visible;"/>
											</clipPath>
											<polygon class="st021" points="1565,364.5 1549.4,377.1 1533.9,364.5 1457.1,364.5 1457.1,295.9 1645.2,295.9
												1645.2,364.5 											"/>
										</g>
									</g>
								</g>
							</g>
						</g>
					</g>
				</g>
			</g>
			<g>
				<g>
					<g>
						<g>
							<defs>
								<polygon id="SVGID_37_" points="1565,364.5 1549.4,377.1 1533.9,364.5 1457.1,364.5 1457.1,295.9 1645.2,295.9
									1645.2,364.5 								"/>
							</defs>
							<clipPath id="SVGID_38_">
								<use xlink:href="#SVGID_37_"  style="overflow:visible;"/>
							</clipPath>
							<g class="st022">
								<g>
									<g>
										<g>
											<defs>
												<rect id="SVGID_39_" x="193.7" y="128.6" width="1602.8" height="1139.8"/>
											</defs>
											<clipPath id="SVGID_40_">
												<use xlink:href="#SVGID_39_"  style="overflow:visible;"/>
											</clipPath>
											<polygon class="st023" points="1565,364.5 1549.4,377.1 1533.9,364.5 1457.1,364.5 1457.1,295.9 1645.2,295.9
												1645.2,364.5 											"/>
										</g>
									</g>
								</g>
							</g>
						</g>
					</g>
				</g>
			</g>
		</g>
			<text transform="matrix(1 0 0 1 1486.3414 339.1754)" class="st05 st6 st7">Секция 1</text>
	</g>
</g>
	<g id="_x32_group">
	<path id="_x32_two" class="st00" d="M1461.4,264.4l4.6-31.5c-20-7.7-79.5-30.6-79.5-30.6c-1.7,0.4-18.9,3.8-20.5,4.4l-28.2-12.8
		l-12.9,2.4c0,0-21.6-8.2-28.6-11.6l-7.4,1l-0.3,1.4l-11.9-0.7c-1.6-2.3-5.6-4.7-9.2-1.4l-2.7,0.1c-0.3-15.3-2.8-16.8-5.6-20
		c0,0,4.3-5.1,4.6-5.6l-0.1-3.7l-21.1-1.4l0.3-10.9l-52-5.6l-9.4,8.3h-5l-4,4.1l-0.8-4.1l-40.3-4.5l-4.1,3.7
		c-1.4-0.3-2.8-0.4-4.3-0.5l0.4-3.9l-40-5l-12.3,9.9c0,5.5-13,0.6-20.6-0.8l-9.4,8.4h-4.2l-4.7,3.5v4.9h1.8v12.7l-27.7,21.6v4.2
		l-30.3,26.7v37v27.1v33.1l-0.1,32.6v31.4v39.6l0,0V456c73.2,14.9,136.6,27.2,136.6,27.2l4.5-6l5.8,1.3l6-9.3l33.3,8.9l-0.2,14
		l67.1,50.2l1.5-34.2l-0.1-0.1l11.9-3.8l3.6-37.5l3.1-32.4l3.2-33.4l3.5-36.3l2-21l-8.1-4.5l0.2-3.8l0,0l0.2-4.7l201.7-46.1l-18.3-8
		v-5L1461.4,264.4z"/>
		<path class="st00" d="M1119.1,447.3l-4.3,4.3l-138.9-25.1v28.1c73.2,14.9,136.6,27.2,136.6,27.2l4.5-6l5.8,1.3l6-9.3l33.3,8.9
		l-0.2,14l67.1,50.2l1.5-34.2l-63.4-49.3L1119.1,447.3z"/>
		<polygon class="st00" points="1207.9,455.9 1216.5,452.6 1173.6,423.3 1085.2,407.4 1081.2,411.7 1011,399.7 1016.5,395.3
		975.9,386.9 975.9,426.5 1114.8,451.6 1119.1,447.3 1167,457.3 1230.4,506.6 1242.3,502.8 1245.9,465.3 1229.2,470.9 	"/>
		<polygon class="st00" points="1232.6,438.4 1211.3,423.2 1220.3,419.8 1175.7,390.4 1087.1,375.6 1081.2,380.3 1011,368.3
		1016.5,363.9 975.9,355.5 975.9,386.9 1016.5,395.3 1011,399.7 1081.2,411.7 1085.2,407.4 1173.6,423.3 1216.5,452.6 1207.9,455.9
		1229.2,470.9 1245.9,465.3 1249,432.9 	"/>
		<polygon class="st00" points="1215.1,389.2 1223,386.2 1177.9,358.2 1089.3,342.7 1084.2,347.9 1011,335.8 1016.5,331.3 976,322.9
		975.9,355.5 1016.5,363.9 1011,368.3 1081.2,380.3 1087.1,375.6 1175.7,390.4 1220.3,419.8 1211.3,423.2 1232.6,438.4 1249,432.9
		1252.2,399.5 1236,403.5 	"/>
		<polygon class="st00" points="1239.8,366.9 1216.5,354 1225.2,351.9 1180.6,322.9 1091.2,308.3 1086.1,313.4 1012.9,301.7
		1018.3,297.3 976,289.8 976,322.9 1016.5,331.3 1011,335.8 1084.2,347.9 1089.3,342.7 1177.9,358.2 1223,386.2 1215.1,389.2
		1236,403.5 1252.2,399.5 1255.7,363.2 	"/>
		<polygon class="st00" points="1128.7,280.7 1124.1,285.1 976,262.7 976,289.8 1018.3,297.3 1012.9,301.7 1086.1,313.4 1091.2,308.3
		1180.6,322.9 1225.2,351.9 1216.5,354 1239.8,366.9 1255.7,363.2 1257.7,342.2 1249.6,337.7 1249.8,333.9 1163.6,286 	"/>
		<path class="st00" d="M1461.4,263L1461.4,263l4.6-31.5c-20-7.7-79.5-30.6-79.5-30.6c-1.7,0.4-18.9,3.8-20.5,4.4l-28.2-12.8
		l-12.9,2.4c0,0-21.6-8.2-28.6-11.6l-7.4,1l-0.3,1.4l-11.9-0.7c-1.6-2.3-5.6-4.7-9.2-1.4l-2.7,0.1c-0.3-15.3-2.8-16.8-5.6-20
		c0,0,4.3-5.1,4.6-5.6l-0.1-3.7l-21.1-1.4l0.3-10.9l-52-5.6l-9.4,8.3h-5l-4,4.1l-0.8-4.1l-40.3-4.5l-4.1,3.7
		c-1.4-0.3-2.8-0.4-4.3-0.5l0.4-3.9l-40-5l-12.3,9.9c0,5.5-13,0.6-20.6-0.8l-9.4,8.4h-4.2l-4.7,3.5v4.9h1.8v12.7l-27.7,21.6v4.2
		L976,225.7v37l148.1,22.4l4.7-4.4l34.8,5.3l86.2,47.9l0.2-4.7l201.7-46.1l-18.3-8v-5L1461.4,263z"/>
		<g id="section2">
		<g>
			<g>
				<g>
					<g>
						<g>
							<defs>
								<polygon id="SVGID_25_" points="1234.8,190.9 1219.3,203.5 1203.7,190.9 1126.9,190.9 1126.9,122.2 1315.1,122.2
									1315.1,190.9 								"/>
							</defs>
							<clipPath id="SVGID_26_">
								<use xlink:href="#SVGID_25_"  style="overflow:visible;"/>
							</clipPath>
							<g class="st016">
								<g>
									<g>
										<g>
											<defs>
												<rect id="SVGID_27_" x="-136.4" y="-45.1" width="1602.8" height="1139.8"/>
											</defs>
											<clipPath id="SVGID_28_">
												<use xlink:href="#SVGID_27_"  style="overflow:visible;"/>
											</clipPath>
											<polygon class="st017" points="1234.8,190.9 1219.3,203.5 1203.7,190.9 1126.9,190.9 1126.9,122.2 1315.1,122.2
												1315.1,190.9 											"/>
										</g>
									</g>
								</g>
							</g>
						</g>
					</g>
				</g>
			</g>
			<g>
				<g>
					<g>
						<g>
							<defs>
								<polygon id="SVGID_29_" points="1234.8,190.9 1219.3,203.5 1203.7,190.9 1126.9,190.9 1126.9,122.2 1315.1,122.2
									1315.1,190.9 								"/>
							</defs>
							<clipPath id="SVGID_30_">
								<use xlink:href="#SVGID_29_"  style="overflow:visible;"/>
							</clipPath>
							<g class="st018">
								<g>
									<g>
										<g>
											<defs>
												<rect id="SVGID_31_" x="-136.4" y="-45.1" width="1602.8" height="1139.8"/>
											</defs>
											<clipPath id="SVGID_32_">
												<use xlink:href="#SVGID_31_"  style="overflow:visible;"/>
											</clipPath>
											<polygon class="st019" points="1234.8,190.9 1219.3,203.5 1203.7,190.9 1126.9,190.9 1126.9,122.2 1315.1,122.2
												1315.1,190.9 											"/>
										</g>
									</g>
								</g>
							</g>
						</g>
					</g>
				</g>
			</g>
		</g>
			<text transform="matrix(1 0 0 1 1156.2109 165.5318)" class="st05 st6 st7">Секция 2</text>
	</g>
</g>
	<g id="_x33_group">
	<path id="_x33_third" class="st00" d="M1048.3,143.3c-7.9-0.3-9.9-3.1-18-1.6c-1.4,0.3-4.3-1.4-5.1-2.9l8.6-6.5l-0.3-3.6
		c-7.7-0.9-38-4.3-38-4.3s-1.2,1.6-5.3,3l-2.2-3.6l-37.6-4.5l-11.4,7.9c-0.1-3.8-0.3-22.4-0.3-22.4c1.3-5.2,2.5-5.3-0.6-5.8
		c-2.1-0.4-10.3-1-10.3-1c0.2-2.8,0.8-13.9,0.8-13.9c-2,0.1-48.4-5.3-52.6-5.6c-5.5-0.4-30.4-4-34.8-3c-3.7,2.2-23.7,11.7-23.7,11.7
		c-6.8-1.5-13.8,0.1-19.3,4.4l-12-0.7c-0.6-0.2-1.1-0.8-2.4-2.6c-1.3-1.8-1.8,0-3.7,1.2l-19.4-2.2l-8.6,2.8
		c-0.9,0.8-1.1,2.1-2.2,1.8c-3.3-1-6.4,0.1-9.4,1.2c-3,1.1-4.4,1.7-5.4,1.4c-1.2-0.3-12.3-1.2-13.6-1.2l-17.3,7.6l-0.3,3.9l5.7,0.2
		c2,1.8,0.7,5.7,0.7,7.6c-1.3,1.5-15.4-2.5-17-4.6c-1.6-2.1-3.1-3.4-5.8-1.5c-0.8,0.6-2.3,0.5-2.2-0.4c0.1-1.2,0-2.4-0.3-3.6
		c-1.3,0.1-28.2,0.7-28.2,0.7c-0.2,1.8-0.3,5.7-0.3,5.7c-1,1.6-0.6-8.1-2.6-7.2c-3.2,1.5-1.3,20.3-2,20.4l19.7,5.7v11l-43.9,20.7
		l5.3,45.7l4,34.4l3.5,30.4l3.5,30.3l3.3,28.7l3.4,29.2v0.1v0.2l6.7,1.4v6.4l-8.8,7.1v16.2c0,0,200.7,39,328,64.9v-28.1v-0.1v-39.6
		v-32v-32v-33.1l-0.2,0v-27l0.2-0.1v-37l30.3-26.5v-4.2l27.7-21.6v-12.7h-1.8v-4.9l4.7-3.5h4.2l9.4-8.4
		C1050.2,143.5,1049.2,143.4,1048.3,143.3z"/>
		<path class="st00" d="M669.2,365l3.3-2.8l-22.5-3.9v0.2l6.7,1.4v6.4l-8.8,7.1v16.2c0,0,200.7,39,328,64.9v-28.1
		l-306.5-57.8L669.2,365z"/>
		<polygon class="st00" points="940.3,386 944.5,381.8 914.1,376 908.2,380.7 843.9,368.5 846.8,364.7 790.9,354.1
		785.8,358.2 723.9,347.2 728.6,342.3 701.4,338 695.7,341.6 669.3,336.4 672.5,334 646.6,329 650,358.2 672.5,362.1 669.2,365
		669.4,368.5 975.9,426.3 975.9,386.7 969.8,392.3 	"/>
		<polygon class="st00" points="969.8,360.7 939.8,355.4 944,351.5 912.5,344.8 907.2,349.6 842.3,337.8 845.6,334.3
		788.8,322.7 782.8,327.5 721.4,316.6 724.9,312.2 698.9,307.5 693,310.9 667.7,306.9 669.9,304.5 643.3,300.3 646.6,329 672.5,334
		669.3,336.4 695.7,341.6 701.4,338 728.6,342.3 723.9,347.2 785.8,358.2 790.9,354.1 846.8,364.7 843.9,368.5 908.2,380.7
		914.1,376 944.5,381.8 940.3,386 969.8,392.3 975.9,386.7 975.9,354.7 	"/>
		<polygon class="st00" points="969.9,327.9 940.6,323.1 943.8,319.1 912.4,313.2 906.9,317.6 841.3,306.9 844.3,303
		786.7,291.9 780.1,296.4 718.8,286.4 722.3,282.9 694.4,277.5 689.3,280.5 662.9,277.1 666.1,275 639.8,270 643.3,300.3
		669.9,304.5 667.7,306.9 693,310.9 698.9,307.5 724.9,312.2 721.4,316.6 782.8,327.5 788.8,322.7 845.6,334.3 842.3,337.8
		907.2,349.6 912.5,344.8 944,351.5 939.8,355.4 969.8,360.7 975.9,354.7 975.9,322.7 	"/>
		<polygon class="st00" points="940.1,290.4 943.8,287.1 911.2,281 906.4,285 839.9,274.1 843.2,271.2 784.2,260.6
		778.4,265.2 716.7,255.5 719.2,251.9 692.5,247.5 687.2,250.7 660.2,247.2 662.9,244.8 636.3,239.6 639.8,270 666.1,275
		662.9,277.1 689.3,280.5 694.4,277.5 722.3,282.9 718.8,286.4 780.1,296.4 786.7,291.9 844.3,303 841.3,306.9 906.9,317.6
		912.4,313.2 943.8,319.1 940.6,323.1 969.9,327.9 975.9,322.7 975.9,289.6 970,295 	"/>
		<path class="st00" d="M652.5,214.6v-3.5l4.2-3.1c0,0-24.2-2.8-24.4-2.8l4,34.4l26.6,5.2l-2.7,2.4l27,3.5l5.2-3.2
		l26.8,4.4l-2.5,3.7l61.7,9.6l5.8-4.6l58.9,10.6l-3.2,2.9l66.5,10.9l4.7-4l32.6,6.1l-3.7,3.3l29.8,4.7l5.9-5.5v-27L652.5,214.6z"/>
		<path class="st00" d="M1047.6,143.3c-7.9-0.3-9.9-3.1-18-1.6c-1.4,0.3-4.3-1.4-5.1-2.9l8.6-6.5l-0.3-3.6
		c-7.7-0.9-38-4.3-38-4.3s-1.2,1.6-5.3,3l-2.2-3.6l-37.6-4.5l-11.4,7.9c-0.1-3.8-0.3-22.4-0.3-22.4c1.3-5.2,2.5-5.3-0.6-5.8
		c-2.1-0.4-10.3-1-10.3-1c0.2-2.8,0.8-13.9,0.8-13.9c-2,0.1-48.4-5.3-52.6-5.6c-5.5-0.4-30.4-4-34.8-3c-3.7,2.2-23.7,11.7-23.7,11.7
		c-6.8-1.5-13.8,0.1-19.3,4.4l-12-0.7c-0.6-0.2-1.1-0.8-2.4-2.6s-1.8,0-3.7,1.2L760,87.3l-8.6,2.8c-0.9,0.8-1.1,2.1-2.2,1.8
		c-3.3-1-6.4,0.1-9.4,1.2s-4.4,1.7-5.4,1.4c-1.2-0.3-12.3-1.2-13.6-1.2l-17.3,7.6l-0.3,3.9l5.7,0.2c2,1.8,0.7,5.7,0.7,7.6
		c-1.3,1.5-15.4-2.5-17-4.6s-3.1-3.4-5.8-1.5c-0.8,0.6-2.3,0.5-2.2-0.4c0.1-1.2,0-2.4-0.3-3.6c-1.3,0.1-28.2,0.7-28.2,0.7
		c-0.2,1.8-0.3,5.7-0.3,5.7c-1,1.6-0.6-8.1-2.6-7.2c-3.2,1.5-1.3,20.3-2,20.4l19.7,5.7v11L627,159.5l5.3,45.7
		c0.2,0,24.4,2.8,24.4,2.8l-4.2,3.1v3.5l323.4,47.9v-37l30.3-26.5v-4.2l27.7-21.6v-12.7h-1.8v-4.9l4.7-3.5h4.2l9.4-8.4
		C1049.5,143.5,1048.5,143.4,1047.6,143.3z"/>
		<g id="section3">
		<g>
			<g>
				<g>
					<g>
						<g>
							<defs>
								<polygon id="SVGID_17_" points="864.4,127.4 848.9,140 833.4,127.4 756.6,127.4 756.6,58.8 944.7,58.8 944.7,127.4
									"/>
							</defs>
							<clipPath id="SVGID_18_">
								<use xlink:href="#SVGID_17_"  style="overflow:visible;"/>
							</clipPath>
							<g class="st012">
								<g>
									<g>
										<g>
											<defs>
												<rect id="SVGID_19_" x="-506.8" y="-108.6" width="1602.8" height="1139.8"/>
											</defs>
											<clipPath id="SVGID_20_">
												<use xlink:href="#SVGID_19_"  style="overflow:visible;"/>
											</clipPath>
											<polygon class="st013" points="864.4,127.4 848.9,140 833.4,127.4 756.6,127.4 756.6,58.8 944.7,58.8 944.7,127.4
																							"/>
										</g>
									</g>
								</g>
							</g>
						</g>
					</g>
				</g>
			</g>
			<g>
				<g>
					<g>
						<g>
							<defs>
								<polygon id="SVGID_21_" points="864.4,127.4 848.9,140 833.4,127.4 756.6,127.4 756.6,58.8 944.7,58.8 944.7,127.4
									"/>
							</defs>
							<clipPath id="SVGID_22_">
								<use xlink:href="#SVGID_21_"  style="overflow:visible;"/>
							</clipPath>
							<g class="st014">
								<g>
									<g>
										<g>
											<defs>
												<rect id="SVGID_23_" x="-506.8" y="-108.6" width="1602.8" height="1139.8"/>
											</defs>
											<clipPath id="SVGID_24_">
												<use xlink:href="#SVGID_23_"  style="overflow:visible;"/>
											</clipPath>
											<polygon class="st015" points="864.4,127.4 848.9,140 833.4,127.4 756.6,127.4 756.6,58.8 944.7,58.8 944.7,127.4
																							"/>
										</g>
									</g>
								</g>
							</g>
						</g>
					</g>
				</g>
			</g>
		</g>
			<text transform="matrix(1 0 0 1 785.8225 102.0479)" class="st05 st6 st7">Секция 3</text>
	</g>
</g>
	<g id="_x34_group">
	<path id="_x34_four" class="st00" d="M670.8,127.6l-19.7-5.7c-4.5,0.6-5.1,0.3-5.1,0.3v-5.8l-36.8-5c0-2.3-0.3-4.5-0.8-6.7l-8.8,0.1
		l-1.4,5.1c-2.9-1.3-26.7,9.3-26.7,9.3c-0.4-1.2-1.2-13.2-1.2-13.2l-29.2,1.2c-0.8,4-3.2,12.9-6.8,7c-1.2-2.1-2.6,1.4-2,4.8
		c-0.3,6.2-0.3,7.5-6.6,10.5c-6.5,3-33.7,13.5-38.2,15.7c-1.9,1-5.8-5.4-5.8-5.4c-3.2,0.2-0.4-4-3.5-4.3c-1.5,2.6-3.3-2.6-3.3-2.6
		c0-1-3,6.9-4,9.4c0.3,1.3-0.2,9.8-2.5,8.2c-1.6-1.2-4.3-15.3-6-16.7c-1.5-1.2-3,0.4-4,2c-2.5,4.2-2,4.6-6,3.5l-31.7-3l-26.3,10v3.6
		c-4.1,0.1-6.3-0.1-10.4-0.1l-25.9,10.8l0.1,3.2l5.1,1.4c0.3,3.9-0.1,8.6,0,14.6l-46.7,19.7l1,9.7l-3.8,2c0.4,2.9,1.5,8.1,1.5,8.1
		l-4.1,0.1l35.1,0.7l0.5,4.8l-13.6,11l166.1,29.3l1.1,9.9l5.6,1.1l0.8,4.3h0l0.6,3.5l-7.1,3.9l4.1,24.5l5.5,33l1,5.7l5.6,2.1
		l1.8,7.1l20.5,4.2v0.1l1.4,8l-15.4,9.9v6.7l32.2,6.3l11.3,2.2l1.4,11.7h8.5l0.3,5.6l-15.6,11.3v4.1l90.6-61.6l3.2-2.6v-6.4
		l-6.7-1.4l-3.3-28.9l-3.4-28.7l-3.5-30.6l-3.5-30.3l-4-34.7h0l-5.3-45.7l43.8-20.9V127.6z"/>
		<polygon class="st00" points="627,344.4 630.4,345.4 630.4,347.5 614.3,357.5 604.3,355.3 589.2,364.8 589.7,368.5 593.3,369.4
		593.6,371.1 557,395.5 568.3,397.7 569.7,409.4 578.2,409.4 578.5,415 562.9,426.3 562.9,430.4 653.5,368.8 656.7,366.2
		656.7,359.8 650,358.4 646.7,329.5 627,341.2 	"/>
		<polygon class="st00" points="623.7,314.9 626.6,315.8 626.6,317.4 610,327 600.9,325.5 585.6,334.6 585.6,338.1 588.8,339.2
		588.8,340.8 546.2,366.2 538.8,364.6 540.2,372.6 524.8,382.5 524.8,389.2 557,395.5 593.6,371.1 593.3,369.4 589.7,368.5
		589.2,364.8 604.3,355.3 614.3,357.5 630.4,347.5 630.4,345.4 627,344.4 627,341.2 646.7,329.5 643.3,300.8 623.5,312.5 	"/>
		<polygon class="st00" points="620,284.3 623,284.8 623,286.8 606.3,296.2 596.3,295.2 581.1,303.7 581.1,306.6 584.2,307.4
		584.2,309.3 540.9,334.6 530.1,333.7 509.9,345.4 510.9,351.1 516.5,353.2 518.3,360.3 538.8,364.5 538.8,364.6 546.2,366.2
		588.8,340.8 588.8,339.2 585.6,338.1 585.6,334.6 600.9,325.5 610,327 626.6,317.4 626.6,315.8 623.7,314.9 623.5,312.5
		643.3,300.8 639.8,270.2 619.6,281.5 	"/>
		<polygon class="st00" points="616.3,253.3 619.1,253.3 619.1,255.9 601.9,264.7 592.2,263.6 576.6,272.3 576.9,275.4 580.1,275.4
		580.1,277.7 536.2,301.2 525.5,300.6 504.4,312.4 509.9,345.4 530.1,333.7 540.9,334.6 584.2,309.3 584.2,307.4 581.1,306.6
		581.1,303.7 596.3,295.2 606.3,296.2 623,286.8 623,284.8 620,284.3 619.6,281.5 639.8,270.2 636.3,239.9 616,250.4 	"/>
		<polygon class="st00" points="614.1,217.7 617.5,217.7 618.1,221.2 506.8,280.5 507.4,284 500.3,287.9 504.4,312.4 525.5,300.6
		536.2,301.2 580.1,277.7 580.1,275.4 576.9,275.4 576.6,272.3 592.2,263.6 601.9,264.7 619.1,255.9 619.1,253.3 616.3,253.3
		616,250.4 636.3,239.9 632.3,205.2 614,213.7 	"/>
		<path class="st00" d="M670.8,138.6v-11l-19.7-5.7c-4.5,0.6-5.1,0.3-5.1,0.3v-5.8l-36.8-5c0-2.3-0.3-4.5-0.8-6.7l-8.8,0.1l-1.4,5.1
		c-2.9-1.3-26.7,9.3-26.7,9.3c-0.4-1.2-1.2-13.2-1.2-13.2l-29.2,1.2c-0.8,4-3.2,12.9-6.8,7c-1.2-2.1-2.6,1.4-2,4.8
		c-0.3,6.2-0.3,7.5-6.6,10.5c-6.5,3-33.7,13.5-38.2,15.7c-1.9,1-5.8-5.4-5.8-5.4c-3.2,0.2-0.4-4-3.5-4.3c-1.5,2.6-3.3-2.6-3.3-2.6
		c0-1-3,6.9-4,9.4c0.3,1.3-0.2,9.8-2.5,8.2c-1.6-1.2-4.3-15.3-6-16.7c-1.5-1.2-3,0.4-4,2c-2.5,4.2-2,4.6-6,3.5l-31.7-3l-26.3,10v3.6
		c-4.1,0.1-6.3-0.1-10.4-0.1l-25.9,10.8l0.1,3.2l5.1,1.4c0.3,3.9-0.1,8.6,0,14.6l-46.7,19.7l1,9.7l-3.8,2c0.4,2.9,1.5,8.1,1.5,8.1
		l-4.1,0.1l35.1,0.7l0.5,4.8l-13.6,11l166.1,29.3l1.1,9.9l5.6,1.1l0.8,4.3l111.4-59.3l-0.7-3.5h-3.3l-0.2-4l18.3-8.5l-5.3-45.7
		L670.8,138.6z"/>
		<g id="section4">
		<g>
			<g>
				<g>
					<g>
						<g>
							<defs>
								<polygon id="SVGID_9_" points="504.8,154.1 489.3,166.7 473.7,154.1 396.9,154.1 396.9,85.5 585.1,85.5 585.1,154.1
																	"/>
							</defs>
							<clipPath id="SVGID_10_">
								<use xlink:href="#SVGID_9_"  style="overflow:visible;"/>
							</clipPath>
							<g class="st08">
								<g>
									<g>
										<g>
											<defs>
												<rect id="SVGID_11_" x="-866.4" y="-81.8" width="1602.8" height="1139.8"/>
											</defs>
											<clipPath id="SVGID_12_">
												<use xlink:href="#SVGID_11_"  style="overflow:visible;"/>
											</clipPath>
											<polygon class="st09" points="504.8,154.1 489.3,166.7 473.7,154.1 396.9,154.1 396.9,85.5 585.1,85.5 585.1,154.1
																							"/>
										</g>
									</g>
								</g>
							</g>
						</g>
					</g>
				</g>
			</g>
			<g>
				<g>
					<g>
						<g>
							<defs>
								<polygon id="SVGID_13_" points="504.8,154.1 489.3,166.7 473.7,154.1 396.9,154.1 396.9,85.5 585.1,85.5 585.1,154.1
																	"/>
							</defs>
							<clipPath id="SVGID_14_">
								<use xlink:href="#SVGID_13_"  style="overflow:visible;"/>
							</clipPath>
							<g class="st010">
								<g>
									<g>
										<g>
											<defs>
												<rect id="SVGID_15_" x="-866.4" y="-81.8" width="1602.8" height="1139.8"/>
											</defs>
											<clipPath id="SVGID_16_">
												<use xlink:href="#SVGID_15_"  style="overflow:visible;"/>
											</clipPath>
											<polygon class="st011" points="504.8,154.1 489.3,166.7 473.7,154.1 396.9,154.1 396.9,85.5 585.1,85.5 585.1,154.1
																							"/>
										</g>
									</g>
								</g>
							</g>
						</g>
					</g>
				</g>
			</g>
		</g>
			<text transform="matrix(1 0 0 1 426.2109 128.7732)" class="st05 st6 st7">Секция 4</text>
	</g>
</g>
	<g id="_x35_group">
	<path id="_x35_five" class="st00" d="M653.5,516.3l-5-0.5c1-5.2-1.8-7.5-4.2-9.3c0,0,8.2-6.3,9.8-7.9c1.3-1.3-1.3,0-0.9-1.7
		c0.5-1.9,2.5-3,0.5-3.4c-3.1-0.7-19.5-4.5-19.5-4.5l0,0c0,0-0.8-7.9-0.7-8.9c0,0-30.2-7.3-33.4-7.6l-0.4-4.1c0,0,9.9-6.6,14-10.6
		c2.8-2.7,1-1,1.6-5.8l0,0l-20.1-4.9l0.2-7l-32.9-6.5l-0.1-0.1v-7.3h-0.2l15.6-11.4l-0.3-5.6H569l-1.4-11.7l-43.4-8.4v-6.7l15.5-9.9
		l-0.7-4.1l0,0l-0.7-3.9l-20.5-4.2l-1.8-7.1l-5.6-2.1l-10.6-63.2l7.1-3.9l-1.4-7.8l-5.6-1.1l-1.1-9.9l-166.1-29.3l13.6-11l-0.5-4.8
		l-35.1-0.7l-4.3,0.1l-18.7,14.7c0,0,0.4,2.4,0.5,3.4l-5.4,0.6c0,0-15.4,11.5-19.5,15.7l0.9,4c0.8,0.2,15.7,0,16.5,0.4
		c3.2,1.3-6.2,3.6-5.6,7.2c0.5,3.5,1,4.8-2.2,6.3c-1.1,0.6-2.1,1.4-2.9,2.5c-2.2,2.8-5.6,7.9-8.7,4.6c-1.9-2-3.5-5.3-4-2.6
		c-0.1,1.5-0.2,2.9-0.2,4.4c-0.3,6.1,0.9,8.3-5.3,8.6c-6.5,0.3-32.6-0.4-32.6-0.4s-41.5,32-54,42.8v5.1c-0.6,0.5,12.4,0.5,12.4,0.5
		c-0.2,3.1,0,3.8,3.1,6c2.3,1.6,1.6,6.8,2.1,9.8c0.5,2.6,1.7,3.3,0.7,5.6c-1,2.2-3.4,1.5-5.1,2.2c0,0,0.4,6.9,2.8,8.6l-5.9,5l-0.8,5
		c0,0,4.6,5.9,7.6,6.3c0,0,8.1,26,7.5,27.2c-0.6,1.2-3.2,0.4-2.8,1.4c0.6,1.4,0.9,2.8,1.3,4l0.1,0c0.7,2.4,1.5,4.3,4.5,4.8
		c0,0,4.4,14.5,10.3,34.1c3.3,10.9,7,23.4,10.7,35.7c3.5,11.8,7,23.5,10,33.7l0,0c5.3,17.9,9.2,31.1,9,31.4
		c-0.1,0.2-0.2,0.4-0.3,0.5l55.6,15.9l2.6,8.8l62.9,15.6l7-5.3l162.6,44.2L654.7,526L653.5,516.3z M352.2,559L352.2,559L352.2,559
		L352.2,559z"/>
	<path class="st00" d="M291.4,583.3l62.9,15.6l7-5.3l162.6,44.2L655.5,526l-1.2-9.7l-5-0.5c1-5.2-1.8-7.5-4.2-9.3
		c0,0,8.2-6.3,9.8-7.9c1.3-1.3-1.3,0-0.9-1.7c0.5-1.9,2.5-3,0.5-3.4c-3.1-0.7-19.5-4.5-19.5-4.5L500.6,596.9L352.9,559l-6.7,5.7
		l-64.8-16.5l-1-6.5l-55.9-15.1c5.3,18,9.2,31.2,9,31.5c-0.1,0.2-0.2,0.4-0.3,0.5l55.6,15.9L291.4,583.3z"/>
	<path class="st00" d="M281.4,548.2l64.8,16.5l6.7-5.7l147.6,37.9L635,489l0,0c0,0-0.8-7.9-0.7-8.9c0,0-30.2-7.3-33.4-7.6l-0.4-4.1
		c0,0,9.9-6.6,14-10.6c2.8-2.7,1-1,1.6-5.8L472,556.7l-126.7-32.6l-7.6,4.7l-66.2-17.3v-4.7l-57-13.8c3.5,11.8,7,23.5,10,33.7
		l55.9,15.1L281.4,548.2z"/>
	<path class="st00" d="M271.5,511.5l66.2,17.3l7.6-4.7L472,556.7L616.1,452l0,0l-20.1-4.9l0.2-7l-32.9-6.5l-77,55.4l-18.3-3.8
		l-38.3,24.6l-94.1-22.9l-7.6,4l-64.8-15.6l-1.7-5.7l-57.7-12.3c3.3,10.9,7,23.4,10.7,35.7l56.9,13.8v4.7H271.5z"/>
	<path class="st00" d="M263.1,475.2l64.8,15.6l7.6-4l94.1,22.9l38.3-24.6l18.3,3.8l77-55.4l0,0v-7.3H563l15.6-11.4l-0.3-5.6h-8.5
		l-1.4-11.7l-43.4-8.4v-6.7l15.5-9.9l-0.7-4.1L455.4,424l-4.3-1l-64.5,41.5L328,450.6l-10,4.3L248.5,440l-1.3-6.4l3.3-1.9L189,418.4
		c0.7,2.4,1.5,4.3,4.5,4.8c0,0,4.4,14.5,10.3,34.1l57.7,12.3L263.1,475.2z"/>
	<path class="st00" d="M247.2,433.6l1.3,6.4l69.5,14.9l10-4.3l58.5,13.9L451,423l4.3,1l84.5-55.5l-0.7-4l-20.5-4.2l-1.8-7.1l-5.6-2.1
		l-10.6-63.2l7.1-3.9l-1.4-7.8l-5.6-1.1l-1.1-9.9l-166.1-29.3l13.6-11l-0.5-4.8l-35.1-0.7l-4.3,0.1l-18.7,14.7c0,0,0.4,2.4,0.5,3.4
		l-5.4,0.6c0,0-15.4,11.5-19.5,15.7l0.9,4c0.8,0.2,15.7,0,16.5,0.4c3.2,1.3-6.2,3.6-5.6,7.2c0.5,3.5,1,4.8-2.2,6.3
		c-1.1,0.6-2.1,1.4-2.9,2.5c-2.2,2.8-5.6,7.9-8.7,4.6c-1.9-2-3.5-5.3-4-2.6c-0.1,1.5-0.2,2.9-0.2,4.4c-0.3,6.1,0.9,8.3-5.3,8.6
		c-6.5,0.3-32.6-0.4-32.6-0.4s-41.5,32-54,42.8v5.1c-0.6,0.5,12.4,0.5,12.4,0.5c-0.2,3.1,0,3.8,3.1,6c2.3,1.6,1.6,6.8,2.1,9.8
		c0.5,2.6,1.7,3.3,0.7,5.6c-1,2.2-3.4,1.5-5.1,2.2c0,0,0.4,6.9,2.8,8.6l-5.9,5l-0.8,5c0,0,4.6,5.9,7.6,6.3c0,0,8.1,26,7.5,27.2
		s-3.2,0.4-2.8,1.4c0.6,1.4,0.9,2.8,1.3,4l61.5,13.2L247.2,433.6z"/>
	<g id="section5">
		<g>
			<g>
				<g>
					<g>
						<g>
							<defs>
								<polygon id="SVGID_1_" points="380.5,326.6 365,339.2 349.4,326.6 272.6,326.6 272.6,257.9 460.7,257.9 460.7,326.6 
																	"/>
							</defs>
							<clipPath id="SVGID_2_">
								<use xlink:href="#SVGID_1_"  style="overflow:visible;"/>
							</clipPath>
							<g class="st01">
								<g>
									<g>
										<g>
											<defs>
												<rect id="SVGID_3_" x="-990.7" y="90.6" width="1602.8" height="1139.8"/>
											</defs>
											<clipPath id="SVGID_4_">
												<use xlink:href="#SVGID_3_"  style="overflow:visible;"/>
											</clipPath>
											<polygon class="st02" points="380.5,326.6 365,339.2 349.4,326.6 272.6,326.6 272.6,257.9 460.7,257.9 460.7,326.6 
																							"/>
										</g>
									</g>
								</g>
							</g>
						</g>
					</g>
				</g>
			</g>
			<g>
				<g>
					<g>
						<g>
							<defs>
								<polygon id="SVGID_5_" points="380.5,326.6 365,339.2 349.4,326.6 272.6,326.6 272.6,257.9 460.7,257.9 460.7,326.6 
																	"/>
							</defs>
							<clipPath id="SVGID_6_">
								<use xlink:href="#SVGID_5_"  style="overflow:visible;"/>
							</clipPath>
							<g class="st03">
								<g>
									<g>
										<g>
											<defs>
												<rect id="SVGID_7_" x="-990.7" y="90.6" width="1602.8" height="1139.8"/>
											</defs>
											<clipPath id="SVGID_8_">
												<use xlink:href="#SVGID_7_"  style="overflow:visible;"/>
											</clipPath>
											<polygon class="st04" points="380.5,326.6 365,339.2 349.4,326.6 272.6,326.6 272.6,257.9 460.7,257.9 460.7,326.6 
																							"/>
										</g>
									</g>
								</g>
							</g>
						</g>
					</g>
				</g>
			</g>
		</g>
		<text transform="matrix(1 0 0 1 301.8877 301.2169)" class="st05 st6 st7">Секция 5</text>
	</g>
</g>
</svg>
