<?xml version="1.0" encoding="UTF-8"?>
<svg width="16px" height="16px" viewBox="0 0 16 16" version="1.1" xmlns="http://www.w3.org/2000/svg" xmlns:xlink="http://www.w3.org/1999/xlink">
    <!-- Generator: Sketch 58 (84663) - https://sketch.com -->
    <title></title>
    <desc>Created with Sketch.</desc>
    <g id="Сайт" stroke="none" stroke-width="1" fill="none" fill-rule="evenodd">
        <g id="Контакты-XL" transform="translate(-805.000000, -195.000000)" fill="#00B7C5" fill-rule="nonzero">
            <g id="Group-2" transform="translate(805.000000, 166.000000)">
                <path d="M15.7143044,41.6964246 C15.7143044,42.0982108 15.5357328,42.8794618 15.3683219,43.2477658 C15.1339466,43.7946414 14.5089459,44.1517847 14.0067131,44.4308029 C13.3482302,44.7879462 12.6785865,45 11.9308178,45 C10.8928701,45 9.95536901,44.5758924 9.00670717,44.2299098 C8.32590278,43.9843738 7.66741985,43.6830341 7.05357984,43.3035694 C5.15625615,42.131693 2.86830699,39.8437439 1.69643059,37.9464202 C1.3928588,37.4553481 1.13928707,36.9357047 0.924286816,36.3989183 L0.451172413,35.1394972 C0.207812748,34.4730901 0,33.7957456 0,33.0691822 C0,32.3214135 0.212053824,31.6517698 0.569197107,30.9932869 L0.74687589,30.6813222 C0.998661905,30.2566789 1.31473371,29.8191783 1.75223423,29.6316781 C2.12053824,29.4642672 2.90178917,29.2856956 3.30357537,29.2856956 C3.38170046,29.2856956 3.45982555,29.2856956 3.53795065,29.3191777 C3.77232593,29.3973028 4.01786193,29.9441785 4.12946921,30.167393 L4.83879545,31.4446763 C4.95784321,31.6567301 5.07813105,31.8675439 5.20089906,32.0758775 C5.3794707,32.3660564 5.71429253,32.7231997 5.71429253,33.0691822 C5.71429253,33.7499866 3.69420083,34.7432913 3.69420083,35.3459706 C3.69420083,35.6473103 3.97321902,36.0379357 4.12946921,36.3057932 C5.2567027,38.3370456 6.66295437,39.7432973 8.69420679,40.8705308 L9.03615666,41.0769171 C9.24247754,41.1968077 9.46569209,41.3057992 9.65402937,41.3057992 C10.2567087,41.3057992 11.2500134,39.2857075 11.9308178,39.2857075 C12.2768003,39.2857075 12.6339436,39.6205293 12.9241225,39.7991009 C13.5491233,40.167405 14.1964455,40.5133875 14.832607,40.8705308 L15.13436,41.0214073 C15.3683219,41.1445887 15.6287389,41.3057992 15.6808223,41.4620494 C15.7143044,41.5401744 15.7143044,41.6182995 15.7143044,41.6964246 Z" id=""></path>
            </g>
        </g>
    </g>
</svg>